irkorzik_1 = {
	slot = 1
	generic = no
	ai = yes
	has_country_shield = yes
	potential = { tag = F69 } 

	F69_contesting_the_seas = {
		icon = mission_establish_high_seas_navy
		position = 4
		required_missions = { F69_ending_the_rivalry } 
		provinces_to_highlight = {  
			OR = {
				area = ohitsopot_area
				area = deshak_area
				area = oris_area
			}
			NOT = { country_or_non_sovereign_subject_holds = ROOT }
		} 

		trigger = {  
			NOT = { exists = U06 }
			ohitsopot_area = {
				type = all
				AND = {
					owned_by = ROOT
					is_core = ROOT
				}
			}
			deshak_area = {
				type = all
				AND = {
					owned_by = ROOT
					is_core = ROOT
				}
			}
			oris_area = {
				type = all
				AND = {
					owned_by = ROOT
					is_core = ROOT
				}
			}
			has_country_modifier = salvage_shipwrecks
			treasury = 50
		} 

		effect = {  
			add_treasury = -50
			random_owned_province = {
				limit = { 
					has_port = yes 
				}
				add_unit_construction = {
					type = heavy_ship
					amount = 3
					speed = 0.5
					cost = 0
				}
			}
			akasik_region = { add_permanent_claim = ROOT }
		} 
	}

	F69_slaying_the_scourge = {
		icon = mission_burning_man
		position = 5
		required_missions = { F69_contesting_the_seas } 
		provinces_to_highlight = {  
			AND = {
				region = akasik_region
				NOT = { 
					AND = {
						country_or_non_sovereign_subject_holds = ROOT
						OR = {
							has_building = temple
							has_building = cathedral
					}
					}
				}
			}
		} 

		trigger = {  
			NOT = { exists = U07 }
			akasik_region = {
				type = all
				AND = {
					owned_by = ROOT
					is_core = ROOT
				}
			}
			calc_true_if = {
				amount =5
				all_owned_province = {
					AND = {
						region = akasik_region
						OR = {
							has_building = temple
							has_building = cathedral
						}
					}
				}
			}
		} 

		effect = {  
			country_event = { id = flavour_irkorzik.3 }
		} 
	}

	F69_continue_the_cleansing = {
		icon = mission_fire_judgement
		position = 6
		required_missions = {
			F69_slaying_the_scourge
			F69_ruins_for_the_desert
		}
		provinces_to_highlight = {  
			OR = {
				region = kubaci_region
				region = west_salahad_region
				region = akasik_region
			}
			religion = xhazobkult
		} 

		trigger = {  
			kubaci_region = {
				type = all
				NOT = { religion = xhazobkult }
			}
			west_salahad_region = {
				type = all
				NOT = { religion = xhazobkult }
			}
			akasik_region = {
				type = all
				NOT = { religion = xhazobkult }
			}
			if = {
				limit = {
					U09 = {
						any_owned_province = {
							religion_group = khetist
						}
					}
				}
				has_spy_network_in = {
					who = U09
					value = 50
				}
			}
			else = {
				has_mil_advisor_2 = yes
			}
		} 

		effect = {  
			golkora_stretch_area = { add_permanent_claim = ROOT }
			kaxatan_area = { add_permanent_claim = ROOT }
			hapmot_area = { add_permanent_claim = ROOT }
			jagab_faru_area = { add_permanent_claim = ROOT }
			gnolltauz_area = { add_permanent_claim = ROOT }
			saqraxat_area = { add_permanent_claim = ROOT }
			gnollakaz_area = { add_permanent_claim = ROOT }
			if = {
				limit = {
					U09 = {
						any_owned_province = {
							religion_group = khetist
						}
					}
				}
				custom_tooltip = F69_continue_the_cleansing_tooltip
				hidden_effect = {
					set_country_flag = irkorzik_declare_war_on_gnollakaz
				}
			}
		} 
	}

	F69_cleaving_the_mountains = {
		icon = mission_heated_battle
		position = 7
		required_missions = { F69_continue_the_cleansing } 
		provinces_to_highlight = {  
			OR = {
				area = sur_mountains_area
				area = garpix_tluukt_area
				area = jixobix_area
				area = grixekyr_area
				area = eastern_krahway_area
			}
			NOT = { country_or_non_sovereign_subject_holds = ROOT }
		} 

		trigger = {  
			NOT = { exists = F28 }
			accepted_culture = sandfang_gnoll
			sur_mountains_area = { type = all country_or_non_sovereign_subject_holds = ROOT }
			garpix_tluukt_area = { type = all country_or_non_sovereign_subject_holds = ROOT }
			jixobix_area = { type = all country_or_non_sovereign_subject_holds = ROOT }
			grixekyr_area = { type = all country_or_non_sovereign_subject_holds = ROOT }
			eastern_krahway_area = { type = all country_or_non_sovereign_subject_holds = ROOT }
		} 

		effect = {  
			every_owned_province = {
				if = {
					limit = {
						is_core = U07
						religion = xhazobkult
					}
					add_province_modifier = { name = irkorzik_cleansed_land duration = 5475 }
				}	
			}
			add_devotion = 10
			far_bulwar_region = { add_permanent_claim = ROOT }
			zansap_area = { add_permanent_claim = ROOT }
			medurubar_area = { add_permanent_claim = ROOT }
			upper_brasan_area = { add_permanent_claim = ROOT }
			lower_brasan_area = { add_permanent_claim = ROOT }
			outer_drolas_area = { add_permanent_claim = ROOT }
			inner_drolas_area = { add_permanent_claim = ROOT }
		} 
	}

	F69_rebuild_the_ashes = {
		icon = mission_torch_fire
		position = 8
		required_missions = { F69_cleaving_the_mountains } 
		provinces_to_highlight = {  
			region = far_bulwar_region
			NOT = { country_or_non_sovereign_subject_holds = ROOT }
		} 

		trigger = {  
			far_bulwar_region = { type = all country_or_non_sovereign_subject_holds = ROOT }
			church_power = 150 
		} 

		effect = {  
			far_salahad_region = { add_permanent_claim = ROOT }
			add_country_modifier = { name = irkorzik_the_great_purifiers duration = -1 }
		} 
	}

	F69_the_sand_road = {
		icon = mission_silk_road
		position = 9
		required_missions = {
			F69_rebuild_the_ashes
			F69_empress_of_dust
		}
		provinces_to_highlight = {  } 

		trigger = {  
			mercantilism = 30
			2901 = { is_strongest_trade_power = ROOT }
			2923 = { is_strongest_trade_power = ROOT }
			481 = { is_strongest_trade_power = ROOT }
			463 = { is_strongest_trade_power = ROOT }
			402 = { is_strongest_trade_power = ROOT }
		} 

		effect = {  
			add_country_modifier = { name = irkorzik_the_sand_road duration = -1 }
		} 
	}

	F69_the_route_of_approach = {
		icon = mission_saharan_route
		position = 10
		required_missions = {
			F69_the_sand_road
			F69_the_final_push
		}
		provinces_to_highlight = { 
			province_id = 2927 
			NOT = {
				AND = {
					development = 30
					has_building = mage_tower
					OR = {
						has_building = barracks
						has_building = training_fields
					}
					OR = {
						has_building = temple
						has_building = cathedral
					}
					province_has_center_of_trade_of_level = 2
				}
			}
		} 

		trigger = {  
			capital = 2927
			2927 = {
				development = 30
				has_building = mage_tower
				OR = {
					has_building = barracks
					has_building = training_fields
				}
				OR = {
					has_building = temple
					has_building = cathedral
				}
				province_has_center_of_trade_of_level = 2
			}
		} 

		effect = {  
			2927 = {
				change_religion = kvangahga
				change_culture = windhowler_gnoll
				add_province_modifier = { name = irkorzik_eastern_camp duration = -1 }
			}
		} 
	}
}
irkorzik_2 = {
	slot = 2
	generic = no
	ai = yes
	has_country_shield = yes
	potential = { tag = F69 } 

	F69_rally_the_nomads = {
		icon = mission_desert_rider
		position = 1
		provinces_to_highlight = {  } 

		trigger = {
			army_size_percentage = 0.9
			estate_loyalty = {
				estate = estate_monstrous_tribes
				loyalty = 60
			}
		}

		effect = {
			arrakan_ghaman_area = { add_permanent_claim = ROOT } 
			mokatanga_area = { add_permanent_claim = ROOT } 
			define_general = {
				shock = 3
				fire = 0
				manuever = 3
				siege = 1
				name = "Ozyl the Sandstorm"
			}
		}
	}

	F69_organize_the_vog_mekza = {
		icon = mission_hands_praying
		position = 2
		required_missions = {
			F69_rally_the_nomads
			F69_expelling_the_kult
		}
		provinces_to_highlight = {  } 

		trigger = {  
			crown_land_share = 30
			estate_loyalty = {
				estate = all
				loyalty = 50
			}
			capital_scope = {
				development = 10
			}
		} 

		effect = {  
			unlock_estate = { estate = estate_church }
			unlock_estate_privilege = { estate_privilege = estate_church_sand_molding }
			garpix_brrtekuh_area = { add_permanent_claim = ROOT } 
			western_krahway_area = { add_permanent_claim = ROOT } 
			set_country_flag = no_mandate
		} 
	}

	F69_ending_the_rivalry = {
		icon = mission_spoils_of_war
		position = 3
		required_missions = { F69_organize_the_vog_mekza } 
		provinces_to_highlight = {  
			OR = {
				area = western_krahway_area
				area = garpix_brrtekuh_area
			}
			NOT = { country_or_non_sovereign_subject_holds = ROOT }
		} 

		trigger = {  
			western_krahway_area = { type = all country_or_non_sovereign_subject_holds = ROOT }
			garpix_brrtekuh_area = { type = all country_or_non_sovereign_subject_holds = ROOT }
			has_country_modifier = repurposed_relics
		} 

		effect = {  
			if = {
				limit = {
					ruler_has_personality = zealot_personality
				}
				add_adm_power = 50
			}
			else = {
				add_ruler_personality = zealot_personality
			}
			ohitsopot_area = { add_permanent_claim = ROOT } 
			deshak_area = { add_permanent_claim = ROOT } 
			oris_area = { add_permanent_claim = ROOT } 
		} 
	}

	F69_a_golden_opportunity = {
		icon = mission_sunset
		position = 4
		required_missions = {
			F69_ending_the_rivalry
			F69_support_from_the_mystics
		}
		provinces_to_highlight = {  
			region = kheterata_region
			NOT = {
				AND = {
					owned_by = ROOT
					religion = kvangahga
				}
			}
		} 

		trigger = {  
			num_of_provinces_owned_or_owned_by_non_sovereign_subjects_with = {
				value = 10
				region = kheterata_region
			}
			calc_true_if = {
				amount = 5
				all_owned_province = {
					AND = {
						region = kheterata_region
						religion = kvangahga
					}
				}
			}
		} 

		effect = {  
			add_country_modifier = { name = irkorzik_scourge_of_the_desert duration = -1 }
			add_army_tradition = 10
			lower_sorrow_area = { add_permanent_claim = ROOT }
			upper_sorrow_area = { add_permanent_claim = ROOT }
			kheterat_proper_area = { add_permanent_claim = ROOT }
		} 
	}

	F69_ruins_for_the_desert = {
		icon = mission_burning_castle
		position = 5
		required_missions = { 
			F69_a_golden_opportunity 
			F69_contesting_the_seas
		} 
		provinces_to_highlight = { 
			OR = {
				province_id = 475
				province_id = 463 
				province_id = 473 
			}
			NOT = {
				AND = {
					owned_by = ROOT
					is_core = ROOT
					NOT = { unrest = 0 }
					OR = {
						has_building = barracks
						has_building = training_fields
					}
				}
			}
		} 

		trigger = {  
			has_mil_advisor_2 = yes
			475 = {
				AND = {
					owned_by = ROOT
					is_core = ROOT
					NOT = { unrest = 0 }
					OR = {
						has_building = barracks
						has_building = training_fields
					}
				}
			}
			463 = {
				AND = {
					owned_by = ROOT
					is_core = ROOT
					NOT = { unrest = 0 }
					OR = {
						has_building = barracks
						has_building = training_fields
					}
				}
			}
			473 = {
				AND = {
					owned_by = ROOT
					is_core = ROOT
					NOT = { unrest = 0 }
					OR = {
						has_building = barracks
						has_building = training_fields
					}
				}
			}
		} 

		effect = {  
			475 = {
				add_base_tax = -3
				add_base_manpower = -3
				add_base_production = -3
				add_devastation = 50
			}
			463 = {
				add_base_tax = -3
				add_base_manpower = -3
				add_base_production = -3
				add_devastation = 50
			}
			473 = {
				add_base_tax = -3
				add_base_manpower = -3
				add_base_production = -3
				add_devastation = 50
			}
			capital_scope = {
				add_base_tax = 5
				add_base_manpower = 5
				add_base_production = 5
			}
			add_treasury = 500
			kheterata_region = { add_permanent_claim = ROOT }
			country_event = { id = flavour_irkorzik.4 days = 365 }
		} 
	}

	F69_bulwars_gate = {
		icon = mission_castle_construction
		position = 6
		required_missions = { F69_ruins_for_the_desert } 
		provinces_to_highlight = {  
			region = kheterata_region
			NOT = { country_or_non_sovereign_subject_holds = ROOT }
		} 

		trigger = {  
			kheterata_region = { type = all country_or_non_sovereign_subject_holds = ROOT }
			501 = {
				AND = {
					owned_by = ROOT
					is_core = ROOT
					OR = {
						has_building = barracks
						has_building = training_fields
					}
					OR = {
						has_building = regimental_camp
						has_building = conscription_center
					}
					base_manpower = 5
				}
			}
		} 

		effect = {  
			custom_tooltip = F69_bulwars_gate_tooltip_1
			custom_tooltip = F69_bulwars_gate_tooltip_2
			501 = {
				if = {
					limit = {
						has_building = barracks
					}
					hidden_effect = {
						remove_building = barracks
						add_building = training_fields	
					}
				}
				if = {
					limit = {
						has_building = regimental_camp
					}
					hidden_effect = {
						remove_building = regimental_camp
						add_building = conscription_center	
					}
				}
			}
			sur_mountains_area = { add_permanent_claim = ROOT }
			garpix_tluukt_area = { add_permanent_claim = ROOT }
			jixobix_area = { add_permanent_claim = ROOT }
			grixekyr_area = { add_permanent_claim = ROOT }
			eastern_krahway_area = { add_permanent_claim = ROOT }
		} 
	}

	F69_controlling_irsmahap = {
		icon = mission_desert_city
		position = 7
		required_missions = {
			F69_continue_the_cleansing
			F69_bulwars_gate
		}
		provinces_to_highlight = {  
			region = gol_region
			religion_group = khetist
			NOT = { country_or_non_sovereign_subject_holds = ROOT }
		} 

		trigger = {  
			gol_region = {
				type = all
				custom_trigger_tooltip = {
					tooltip = F69_controlling_irsmahap_tooltip
				}
				if = {
					limit = {
						religion_group = khetist
					}
					country_or_non_sovereign_subject_holds = ROOT
				}
			}
		} 

		effect = {  
			gol_region = { add_permanent_claim = ROOT }
			small_decrease_of_human_tolerance_effect = yes
			for = {
				amount = 5
				effect = "
					random_owned_province = {
						limit = {
							AND = {
								region = gol_region
								religion_group = khetist
							} 
						}
						change_religion = kvangahga
						change_culture = windhowler_gnoll
						add_devastation = 25
					}
				"
			}
		} 
	}

	F69_empress_of_dust = {
		icon = mission_destroyed_city
		position = 8
		required_missions = { F69_controlling_irsmahap } 
		provinces_to_highlight = {  
			region = gol_region
			NOT = { country_or_non_sovereign_subject_holds = ROOT }
		} 

		trigger = {  
			NOT = { exists = U09 }
			gol_region = { 
				type = all 
				country_or_non_sovereign_subject_holds = ROOT 
				NOT = { religion = shadow_pact }
				NOT = { religion = night_coven }
			}
			accepted_culture = sorrowclaw_gnoll
		} 

		effect = {  
			gazraak_region = { add_permanent_claim = ROOT }
			every_owned_province = {
				if = {
					limit = {
						is_core = U09
						religion = xhazobkult
					}
					add_province_modifier = { name = irkorzik_cleansed_land duration = 5475 }
				}	
			}
			custom_tooltip = F69_empress_of_dust_tooltip
			hidden_effect = {
				random_country = {
					limit = {
						owns = 6690
					}
					country_event = { id = flavour_irkorzik.18 }
				}
			}
			6690 = { add_permanent_claim = ROOT }
			yezel_mora_region = {
				discover_country = ROOT
			}
		} 
	}

	F69_the_final_push = {
		icon = mission_unite_home_region
		position = 9
		required_missions = { F69_empress_of_dust } 
		provinces_to_highlight = {  
			region = far_salahad_region
			NOT = { country_or_non_sovereign_subject_holds = ROOT }
		} 

		trigger = {  
			far_salahad_region = { type = all country_or_non_sovereign_subject_holds = ROOT }
			calc_true_if = {
				amount = 30
				all_owned_province = {
					OR = {
						region = far_bulwar_region
						region = far_salahad_region
					}
					religion = kvangahga
				}
			}
		} 

		effect = {  
			add_prestige = 20
			add_owned_provinces_development_ducats = {
				multiplier = 0.5
				age_multiplier = 1
				trigger = { 
					AND = {
						OR = {
							region = far_bulwar_region
							region = far_salahad_region
						}
						religion = kvangahga
					}
				}
			}
			add_owned_provinces_development_manpower = {
				multiplier = 0.05
				age_multiplier = 1
				trigger = { 
					AND = {
						OR = {
							region = far_bulwar_region
							region = far_salahad_region
						}
						religion = kvangahga
					}
				}
			}
		} 
	}

	F69_the_locals_help = {
		icon = mission_indian_stateman
		position = 10
		required_missions = { F69_the_final_push } 
		provinces_to_highlight = {  
			culture_group = bulwari
			owned_by = ROOT
			NOT = { development = 15 }
		} 

		trigger = {  
			OR = {
				accepted_culture = bahari
				accepted_culture = gelkar
				accepted_culture = brasanni
				accepted_culture = surani
				accepted_culture = zanite
				accepted_culture = abtazari
				accepted_culture = kuzarami
				accepted_culture = maqeti
				accepted_culture = masnsih
				accepted_culture = sadnatu
				accepted_culture = bulwari_half_elf
			}
			calc_true_if = {
				amount = 5
				all_owned_province = {
					culture_group = bulwari
					development = 15
				}
			}
			custom_trigger_tooltip = {
				tooltip = F69_the_locals_help_tooltip_1
				OR = {
					employed_advisor = {
						culture = bahari
						skill = 2
					}
					employed_advisor = {
						culture = gelkar
						skill = 2
					}
					employed_advisor = {
						culture = brasanni
						skill = 2
					}
					employed_advisor = {
						culture = surani
						skill = 2
					}
					employed_advisor = {
						culture = zanite
						skill = 2
					}
					employed_advisor = {
						culture = abtazari
						skill = 2
					}
					employed_advisor = {
						culture = kuzarami
						skill = 2
					}
					employed_advisor = {
						culture = maqeti
						skill = 2
					}
					employed_advisor = {
						culture = masnsih
						skill = 2
					}
					employed_advisor = {
						culture = sadnatu
						skill = 2
					}
					employed_advisor = {
						culture = bulwari_half_elf
						skill = 2
					}
				}
			}
		} 

		effect = {  
			define_advisor = {
				type = statesman
				culture = masnsih
				skill = 3
				discount = yes
			}
			add_splendor = 200
			custom_tooltip = F69_the_locals_help_tooltip_2
			hidden_effect = {
				if = {
					limit = {
						accepted_culture = masnsih
					}
					add_dip_power = 200
				}
			}
		} 
	}

	F69_the_greatest_offering = {
		icon = mission_traverse_the_sahara
		position = 11
		required_missions = {
			F69_the_route_of_approach
			F69_the_locals_help
		}
		provinces_to_highlight = {  } 

		trigger = {  
			treasury = 1000
			custom_trigger_tooltip = {
				tooltip = F69_the_greatest_offering_tooltip_1
				OR = {
					employed_advisor = {
						category = DIP
						culture = bahari
						skill = 3
					}
					employed_advisor = {
						category = DIP
						culture = gelkar
						skill = 3
					}
					employed_advisor = {
						category = DIP
						culture = brasanni
						skill = 3
					}
					employed_advisor = {
						category = DIP
						culture = surani
						skill = 3
					}
					employed_advisor = {
						category = DIP
						culture = zanite
						skill = 3
					}
					employed_advisor = {
						category = DIP
						culture = abtazari
						skill = 3
					}
					employed_advisor = {
						category = DIP
						culture = kuzarami
						skill = 3
					}
					employed_advisor = {
						category = DIP
						culture = maqeti
						skill = 3
					}
					employed_advisor = {
						category = DIP
						culture = masnsih
						skill = 3
					}
					employed_advisor = {
						category = DIP
						culture = sadnatu
						skill = 3
					}
					employed_advisor = {
						category = DIP
						culture = bulwari_half_elf
						skill = 3
					}
				}
			}
		} 

		effect = {  
			add_treasury = -1000
			add_country_modifier = { name = irkorzik_preparing_the_offering duration = 1825 }
			country_event = { id = flavour_irkorzik.6 days = 1825 }
			custom_tooltip = F69_the_greatest_offering_tooltip_2
		} 
	}
}
irkorzik_3 = {
	slot = 3
	generic = no
	ai = yes
	has_country_shield = yes
	potential = { tag = F69 } 

	F69_expelling_the_kult = {
		icon = mission_forest_shrine
		position = 1
		provinces_to_highlight = {
			owned_by = ROOT
			OR = {
				area = xoruku_xugu_area
				area = franxhaz_area
				area = gharr_marr_area
				area = fanghasba_area
			}
			AND = {
				NOT = { religion =  kvangahga }
				culture_group = gnollish
			}
		}

		trigger = {
			religious_unity = 0.4
			calc_true_if = {
				amount = 10
				all_owned_province = {
					OR = {
						area = xoruku_xugu_area 
						area = franxhaz_area
						area = gharr_marr_area
						area = fanghasba_area
					}
					AND = {
						religion =  kvangahga
						culture_group = gnollish
					}
				}
			}
		}

		effect = {
			define_advisor = {
				type = inquisitor
				skill = 1
				discount = yes
			}
			custom_tooltip = F69_expelling_the_kult_tooltip
			hidden_effect = {
				for = {
					amount = 5
					effect = "
						random_owned_province = {
							limit = { 
								religion = kvangahga
								NOT = { has_province_flag = irkorzik_added_development }
							}
							add_base_tax = 1
							set_province_flag = irkorzik_added_development
						}
					"
				}
				every_owned_province = {
					clr_province_flag = irkorzik_added_development
				}
			}
		}
	}

	F69_the_western_traitors = {
		icon = dom_ara_remensa_war
		position = 2
		required_missions = { F69_expelling_the_kult } 
		provinces_to_highlight = {  
			OR = {
				AND = {
					OR = {
						area = arrakan_ghaman_area
						area = mokatanga_area
					}
					NOT = { country_or_non_sovereign_subject_holds = ROOT }
				}
				AND = {
					province_id = 5802
					NOT = {
						AND = {
							owned_by = ROOT
							is_core = ROOT
							NOT = { unrest = 0 }
						}
					}
				}
			}
		} 

		trigger = {  
			treasury = 50
			arrakan_ghaman_area = { type = all country_or_non_sovereign_subject_holds = ROOT }
			mokatanga_area = { type = all country_or_non_sovereign_subject_holds = ROOT }
			5802 = { 
				AND = {
					owned_by = ROOT
					is_core = ROOT
					NOT = { unrest = 0 }
				}
			}
		} 

		effect = {  
			if = {
				limit = {
					5802 = { province_has_center_of_trade_of_level = 1 }
				}
				add_treasury = -50
				5802 = { add_center_of_trade_level = 1 }
			}
			else = {
				add_treasury = 100
			}
			if = {
				limit = {
					has_ruler_flag = irkorzik_is_alive
				}
				add_ruler_modifier = { name = irkorzik_legacy duration = -1 }
			}
		} 
	}

	F69_support_from_the_mystics = {
		icon = mission_reliable_allies
		position = 3
		required_missions = {
			F69_organize_the_vog_mekza
			F69_the_western_traitors
		}
		provinces_to_highlight = { }

		trigger = {
			religious_unity = 0.6
			development_in_provinces = {
				OR = {
					has_terrain = desert
					has_terrain = coastal_desert
				}
				value = 60
			}
		}

		effect = {
			custom_tooltip = F69_support_from_the_mystics_tooltip
			hidden_effect = {
				for = {
					amount = 3
					effect = "
						random_owned_province = {
							limit = { 
								OR = {
									has_terrain = desert
									has_terrain = coastal_desert
								}
								OR = {
									NOT = { has_building = temple }
									NOT = { has_building = cathedral }
								}
							}
							add_building = temple
						}
					"
				}
			}
			coast_of_tears_area = { add_permanent_claim = ROOT }
			mothers_delta_area = { add_permanent_claim = ROOT }
			hitputtiushesh_area = { add_permanent_claim = ROOT }
		}
	}

	F69_devising_the_trials = {
		icon = mission_science
		position = 4
		required_missions = { F69_support_from_the_mystics } 
		provinces_to_highlight = {  

		} 

		trigger = {
			estate_loyalty = {
				estate = estate_church
				loyalty = 60
			}
			estate_influence = {
				estate = estate_church
				influence = 40
			}
			num_of_estate_privileges = {
				estate = estate_church
				value = 4
			}
			adm_power = 100
		}

		effect = {
			add_adm_power = -100
			add_stability = 1
			custom_tooltip = F69_devising_the_trials_tooltip
			if = {
				limit = {
					num_of_estate_privileges = {
						estate = estate_church
						value = 5
					}
				}
				add_adm_power = 20
			}
			if = {
				limit = {
					num_of_estate_privileges = {
						estate = estate_church
						value = 6
					}
				}
				add_adm_power = 20
			}
			if = {
				limit = {
					num_of_estate_privileges = {
						estate = estate_church
						value = 7
					}
				}
				add_adm_power = 20
			}
			if = {
				limit = {
					num_of_estate_privileges = {
						estate = estate_church
						value = 8
					}
				}
				add_adm_power = 20
				add_church_power = 50
			}
		}
	}

	F69_dunesworn_council = {
		icon = mission_noble_council
		position = 5
		required_missions = { F69_devising_the_trials } 
		provinces_to_highlight = {  } 

		trigger = {
			stability = 3
			has_country_modifier = recycled_jewellery
		}

		effect = {
			if = {
				limit = { has_ruler_modifier = irkorzik_legacy } 
				custom_tooltip = F69_dunesworn_council_tooltip
				set_country_flag = irkorzik_extend_irkorziks_legacy
			}
			set_country_flag = irkorzik_reformed
			change_government = theocracy
			add_government_reform = irkorzik_dunesworn_council_reform
		}
	}

	F69_harnessing_the_desert = {
		icon = mission_desert_pilgrim
		position = 6
		required_missions = {
			F69_ruins_for_the_desert
			F69_dunesworn_council
		}
		provinces_to_highlight = {  
			owned_by = ROOT
			OR = {
				has_terrain = desert
				has_terrain = coastal_desert
			}
			NOT = { development = 10 }
			OR = {
				NOT = { has_building = temple }
				NOT = { has_building = cathedral }
			}
		} 

		trigger = {  
			estate_loyalty = {
				estate = estate_church
				loyalty = 60
			}
			calc_true_if = {
				amount = 10
				all_owned_province = {
					OR = {
						has_terrain = desert
						has_terrain = coastal_desert
					}
					AND = {
						development = 10
						OR = {
							has_building = temple
							has_building = cathedral
						}
					}
				}
			}
		} 

		effect = {  
			set_estate_privilege = estate_church_sandstorm_summoning 
			hidden_effect = {
				unlock_estate_privilege = {
					estate_privilege = estate_church_sandstorm_summoning 
				}
			}
			define_advisor = {
				type = court_mage
				skill = 2
				discount = yes
			}
		} 
	}

	F69_warfare_applications = {
		icon = mission_armoury
		position = 7
		required_missions = { F69_harnessing_the_desert } 
		provinces_to_highlight = {  } 

		trigger = {  
			has_mil_advisor_3 = yes
			OR = {
				army_tradition = 70
				army_professionalism = 0.3
			}
		} 

		effect = {  
			custom_tooltip = F69_warfare_applications_tooltip
			hidden_effect = {
				remove_country_modifier = irkorzik_scourge_of_the_desert
				add_country_modifier = { name = irkorzik_sandstorm_warfare duration = -1 }
			}
		} 
	}

	F69_fangaulan_secrets = {
		icon = mission_gain_mana
		position = 8
		required_missions = { F69_warfare_applications } 
		provinces_to_highlight = {  
			superregion = fangaula_superregion
			country_or_non_sovereign_subject_holds = ROOT
			NOT = { development = 15 }
		} 

		trigger = {  
			num_of_provinces_owned_or_owned_by_non_sovereign_subjects_with = {
				value = 10
				superregion = fangaula_superregion
				development = 15
			}
			5710 = {
				AND = {
					OR = {
						has_building = temple
						has_building = cathedral
					}
					has_manufactory_trigger = yes
					province_has_center_of_trade_of_level = 2
				}
			}
		} 

		effect = {  
			define_advisor = {
				type = court_mage
				skill = 3
				discount = yes
			}
			if = {
				limit = {
					5710 = {
						province_has_center_of_trade_of_level = 3
					}
				}
				add_treasury = 1000
			}
			else = {
				5710 = {
					add_center_of_trade_level = 1
				}
			}
		} 
	}

	F69_culling_the_darkness = {
		icon = mission_destroy_the_horde
		position = 9
		required_missions = {
			F69_empress_of_dust
			F69_fangaulan_secrets
		}
		provinces_to_highlight = {  } 

		trigger = {  
			OR = {
				AND = {
					offensive_war_with = event_target:irkorzik_enemy
					war_score_against = {
						who = event_target:irkorzik_enemy
						value = 90
					}
					6690 = { controlled_by = ROOT }
				}
				AND = {
					6690 = { owned_by = ROOT }
					6690 = { is_core = ROOT }
				}
			}
		} 

		effect = {  
			hidden_effect = {
				if = {
					limit = {
						offensive_war_with = S70
					}
					S70 = { release_all_possible_countries = yes }
				}
				remove_country_modifier = irkorzik_sandstorm_warfare
				add_country_modifier = { name = irkorzik_wrath_of_the_sands duration = -1 }
			}
			white_peace = event_target:irkorzik_enemy
			custom_tooltip = F69_culling_the_darkness_tooltip
			mattabo_area = { add_permanent_claim = ROOT }
			add_power_projection = {
				type = mam_defeated_ottomans_pp
				amount = 50
			}
		} 
	}

	F69_shutting_the_entrance = {
		icon = mission_arabian_fort
		position = 11
		required_missions = { 
			F69_culling_the_darkness 
			F69_nurture_our_home
		} 
		provinces_to_highlight = {  
			OR = {
				province_id = 5665
				province_id = 5666
			}
			NOT = { has_province_modifier = irkorzik_sandstorm_summoning }
		} 

		trigger = {  
			5665 = {
				owned_by = ROOT
				is_core = ROOT
				has_province_modifier = irkorzik_sandstorm_summoning
			}
			5666 = {
				owned_by = ROOT
				is_core = ROOT
				has_province_modifier = irkorzik_sandstorm_summoning
			}
			custom_trigger_tooltip = {
				tooltip = F69_shutting_the_entrance_tooltip
				employed_advisor = {
					category = ADM
					skill = 3
				}
			}
		} 

		effect = {  
			hidden_effect = {
				5665 = { remove_province_modifier = irkorzik_sandstorm_summoning }
				5666 = { remove_province_modifier = irkorzik_sandstorm_summoning }
			}
			5665 = { add_province_modifier = { name = irkorzik_sandstorm_wall duration = -1 } }
			5666 = { add_province_modifier = { name = irkorzik_sandstorm_wall duration = -1 } }
		} 
	}

	F69_masters_of_the_salahad = {
		icon = mission_persianate_empire
		position = 12
		required_missions = {
			F69_the_greatest_offering
			F69_shutting_the_entrance
		}
		provinces_to_highlight = {  
			OR = {
				superregion = north_salahad_superregion
				superregion = fangaula_superregion
				superregion = south_salahad_superregion
				superregion = bulwar_superregion
			}
			culture_group = gnollish
			NOT = { religion = kvangahga }
		} 

		trigger = {  
			north_salahad_superregion = {
				type = all
				custom_trigger_tooltip = {
					tooltip = F69_masters_of_the_salahad_tooltip
					if = {
						limit = {
							culture_group = gnollish
						}
						religion = kvangahga
					}
				}
			}
			fangaula_superregion = {
				type = all
				custom_trigger_tooltip = {
					tooltip = F69_masters_of_the_salahad_tooltip
					if = {
						limit = {
							culture_group = gnollish
						}
						religion = kvangahga
					}
				}
			}
			south_salahad_superregion = {
				type = all
				custom_trigger_tooltip = {
					tooltip = F69_masters_of_the_salahad_tooltip
					if = {
						limit = {
							culture_group = gnollish
						}
						religion = kvangahga
					}
				}
			}
			bulwar_superregion = {
				type = all
				custom_trigger_tooltip = {
					tooltip = F69_masters_of_the_salahad_tooltip
					if = {
						limit = {
							culture_group = gnollish
						}
						religion = kvangahga
					}
				}
			}
		} 

		effect = {  
			country_event = { id = flavour_irkorzik.7 }
		} 
	}
}
irkorzik_4 = {
	slot = 4
	generic = no
	ai = yes
	has_country_shield = yes
	potential = { tag = F69 } 

	F69_an_appropiate_incentive = {
		icon = mission_missive
		position = 1
		provinces_to_highlight = {
			OR = {
				owned_by = L18
				owned_by = L17
			}
		}

		trigger = {
			if = {
				limit = {
					OR = {
						AND = {
							NOT = { exists = L18 }
							NOT = { exists = L17 }
						}
						L18 = { vassal_of = ROOT }
						L17 = { vassal_of = ROOT }
					}
				}
				any_known_country = {
					AND = {
						culture_group = west_sarhaly
						vassal_of = ROOT
					}
				}
			}
			else = {
				OR = {
					AND = {
						L18 = {
							custom_trigger_tooltip = {
								tooltip = F69_an_appropiate_incentive_tooltip_1
							}
							hidden_trigger = {
								has_opinion_modifier = {
									who = ROOT
									modifier = improved_relation
									value = 30
								}
							}
						}
						L18 = {
							overlord = {
								OR = {
									has_opinion_modifier = {
										who = ROOT
										modifier = scornfully_insulted
									}
									has_opinion_modifier = {
										who = ROOT
										modifier = warned
									}
								}
							}
						}
					}
					AND = {
						L17 = {
							custom_trigger_tooltip = {
								tooltip = F69_an_appropiate_incentive_tooltip_1
							}
							hidden_trigger = {
								has_opinion_modifier = {
									who = ROOT
									modifier = improved_relation
									value = 30
								}
							}
						}
						L17 = {
							overlord = {
								OR = {
									has_opinion_modifier = {
										who = ROOT
										modifier = scornfully_insulted
									}
									has_opinion_modifier = {
										who = ROOT
										modifier = warned
									}
								}
							}
						}
					}
				}
			}
		}

		effect = {
			if = {
				limit = {
					any_known_country = {
						culture_group = west_sarhaly
						vassal_of = ROOT
					}
				}
				random_known_country = {
					limit = {
						AND = {
							culture_group = west_sarhaly
							vassal_of = ROOT
						}
					}
					hidden_effect = {
						country_event = { id = flavour_irkorzik.2 }
					}
					add_liberty_desire = -10
				}
			}
			else = {
				custom_tooltip = F69_an_appropiate_incentive_tooltip_2
				add_country_modifier = {
					name = irkorzik_association_by_force
					duration = 7300
				}
				hidden_effect = {
					random_known_country = {
						limit = {
							has_opinion_modifier = {
								who = F69
								modifier = improved_relation
								value = 30
							}
							overlord = {
								OR = {
									has_opinion_modifier = {
										who = F69
										modifier = scornfully_insulted
									}
									has_opinion_modifier = {
										who = F69
										modifier = warned
									}
								}
							}
						}
						country_event = { id = flavour_irkorzik.2 }
					}
				}
			}	
		}
	}

	F69_the_human_pack = {
		icon = mission_confrontation
		position = 2
		required_missions = { F69_an_appropiate_incentive } 
		provinces_to_highlight = {  
			owned_by = event_target:irkorzik_vassal
		} 

		trigger = {
			event_target:irkorzik_vassal = {
				AND = {
					vassal_of = ROOT
					NOT = { liberty_desire = 50 }
				}
			}
		}

		effect = {
			create_march = event_target:irkorzik_vassal
			keneya_pipi_area = { add_permanent_claim = event_target:irkorzik_vassal } 
			biakata_area = { add_permanent_claim = event_target:irkorzik_vassal } 
			farirarge_area = { add_permanent_claim = event_target:irkorzik_vassal } 
			sitane_kogojida_area = { add_permanent_claim = event_target:irkorzik_vassal } 
			baghan_area = { add_permanent_claim = event_target:irkorzik_vassal } 
			arojana_area = { add_permanent_claim = event_target:irkorzik_vassal } 
			mojobaa_kulan_area = { add_permanent_claim = event_target:irkorzik_vassal } 
			cikela_jigin_area = { add_permanent_claim = event_target:irkorzik_vassal } 
			jirad_area = { add_permanent_claim = event_target:irkorzik_vassal } 
		}
	}

	F69_delusions_of_grandeur = {
		icon = mission_torch_fire
		position = 3
		required_missions = {
			F69_the_western_traitors
			F69_the_human_pack
		}
		provinces_to_highlight = {  
			region = janama_region
			NOT = { country_or_non_sovereign_subject_holds = ROOT }
		} 

		trigger = {  
			NOT = { exists = F65 }
			janama_region = { 
				type = all
				country_or_non_sovereign_subject_holds = ROOT 
				custom_trigger_tooltip = {
					tooltip = F69_delusions_of_grandeur_tooltip
				}
				hidden_trigger = {
					if = {
						limit = {
							is_core = F65
						}
						NOT = { unrest = 0 }
					}
				}
			}
		} 

		effect = {  
			every_owned_province = {
				if = {
					limit = {
						is_core = F65
					}
					add_nationalism = -10
				}
			}
			event_target:irkorzik_vassal = {
				every_owned_province = {
					if = {
						limit = {
							is_core = F65
						}
						add_nationalism = -10
					}
				}
			}
			masirijiri_area = { add_permanent_claim = event_target:irkorzik_vassal }
			ninki_nanka_bada_area = { add_permanent_claim = event_target:irkorzik_vassal }
			azziza_tu_area = { add_permanent_claim = event_target:irkorzik_vassal }
			kaino_binni_area = { add_permanent_claim = event_target:irkorzik_vassal }
			janfanciso_area = { add_permanent_claim = event_target:irkorzik_vassal }
			add_manpower = 5
		} 
	}

	F69_the_future_of_the_packs = {
		icon = mission_thinking_king
		position = 4
		required_missions = { F69_delusions_of_grandeur } 
		provinces_to_highlight = {  
			OR = {
				area = masirijiri_area
				area = ninki_nanka_bada_area
				area = azziza_tu_area
				area = kaino_binni_area
				area = janfanciso_area
			}
			NOT = { owned_by = event_target:irkorzik_vassal }
		} 

		trigger = {
			event_target:irkorzik_vassal = { NOT = { liberty_desire = 10 } }
			masirijiri_area = { type = all owned_by = event_target:irkorzik_vassal }
			ninki_nanka_bada_area = { type = all owned_by = event_target:irkorzik_vassal }
			azziza_tu_area = { type = all owned_by = event_target:irkorzik_vassal }
			kaino_binni_area = { type = all owned_by = event_target:irkorzik_vassal }
			janfanciso_area = { type = all owned_by = event_target:irkorzik_vassal }
		}

		effect = { 
			country_event = { id = flavour_irkorzik.5 } 
			custom_tooltip = F69_future_of_the_packs_tooltip 
		} 
	}

	F69_biakata_the_great = {
		icon = legacy_of_the_sclavinias
		position = 6
		required_missions = {
			F69_dunesworn_council
			F69_the_future_of_the_packs
		}
		provinces_to_highlight = {  
			if = {
				limit = { F69 = { has_country_flag = irkorzik_honoring_biakatas_legacy_reward_1 } }
				superregion = fangaula_superregion
				AND = {
					is_city = yes
					NOT = { owned_by  = event_target:irkorzik_vassal }
					NOT = { area = arrakan_ghaman_area } 
					NOT = { area = mokatanga_area } 
					NOT = { area = xoruku_xugu_area } 
					NOT = { area = franxhaz_area } 
					NOT = { area = gharr_marr_area } 
					NOT = { area = fanghasba_area } 
					NOT = { province_id = 5742 }
				}
			}
			if = {
				limit = { F69 = { has_country_flag = irkorzik_honoring_biakatas_legacy_reward_2 } }
				superregion = fangaula_superregion
				AND = {
					is_city = yes
					NOT = { owned_by  = ROOT }
				}
			}
		} 

		trigger = {  
			OR = {
				event_target:irkorzik_vassal = {
					num_of_owned_provinces_with = {
						value = 85
						superregion = fangaula_superregion
					}
				}
				num_of_owned_provinces_with = {
					value = 110
					superregion = fangaula_superregion
				}
			}
		} 

		effect = { 
			custom_tooltip = F69_biakata_the_great_tooltip_3
			hidden_effect = {
				if = {
					limit = {
						has_country_flag = irkorzik_honoring_biakatas_legacy_reward_2
					}
					add_country_modifier = { name = irkorzik_biakatas_legacy_modifier duration = -1 }
				}
				if = {
					limit = {
						has_country_flag = irkorzik_honoring_biakatas_legacy_reward_1
					}
					event_target:irkorzik_vassal = { remove_country_modifier = irkorzik_the_human_pack }
					event_target:irkorzik_vassal = { add_country_modifier = { name = irkorzik_the_fangaulan_legion duration = -1 } }
					event_target:irkorzik_vassal = { change_tag = L23 }
				}
			} 
		} 
	}

	F69_one_court_a_vast_desert = {
		icon = mission_sio_camp_circles
		position = 8
		required_missions = { 
			F69_biakata_the_great
			F69_warfare_applications
		} 
		provinces_to_highlight = {  
			owned_by = ROOT
			NOT = { has_province_flag = F69_capital_counter }
		} 

		trigger = {  
			#Thanks to Ditto for this code ^-^
			num_of_owned_provinces_with = {
				value = 5
				custom_trigger_tooltip = {
					tooltip = F69_moved_capital
					has_province_flag = F69_capital_counter
				}
			}
		} 

		effect = {  
			add_prestige = 10
			custom_tooltip = F69_one_court_a_vast_desert_tooltip
			hidden_effect = {
				set_country_flag = irkorzik_itinerant_capital
			}
		} 
	}

	F69_increased_potency = {
		icon = mission_writing_book
		position = 9
		required_missions = {
			F69_fangaulan_secrets
			F69_one_court_a_vast_desert
		}
		provinces_to_highlight = {  
			owned_by = ROOT
			NOT = { has_building = mage_tower }
			OR = {
				has_terrain = desert
				has_terrain = coastal_desert
			}
		} 

		trigger = {  
			estate_loyalty = {
				estate = estate_mages
				loyalty = 60
			}
			has_estate_privilege = estate_mages_patronage_of_the_magical_arts
			calc_true_if = {
				amount = 5
				all_owned_province = {
					OR = {
						has_terrain = desert
						has_terrain = coastal_desert
					}
					has_building = mage_tower
				}
			}
		} 

		effect = {  
			custom_tooltip = F69_increased_potency_tooltip
			hidden_effect = {
				every_owned_province = {
					if = {
						limit = {
							has_building = mage_tower
						}
						add_base_production = 1
					}
				}
				set_country_flag = unlocked_extra_dev_on_mage_tower
			}
		} 
	}

	F69_nurture_our_home = {
		icon = mission_new_dawn
		position = 10
		required_missions = {
			F69_increased_potency
			F69_molding_the_sands
		}
		provinces_to_highlight = {  
			owned_by = ROOT
			NOT = { has_building = mage_tower }
		} 

		trigger = {  
			estate_loyalty = {
				estate = estate_church
				loyalty = 60
			}
			development_in_provinces = {
				OR = {
					has_terrain = desert
					has_terrain = coastal_desert
				}
				value = 500
			}
			calc_true_if = {
				amount = 20
				all_owned_province = {
					has_building = mage_tower
				}
			}
		} 

		effect = {  
			custom_tooltip = F69_nurture_our_home_tooltip
			hidden_effect = {
				set_country_flag = irkorzik_itinerant_capital_bonus_church_power
				set_country_flag = irkorzik_ancestral_armaments_cost_reduction
			}
		} 
	}
}
irkorzi_5 = {
	slot = 5
	generic = no
	ai = yes
	has_country_shield = yes
	potential = { tag = F69 } 

	F69_molding_the_sands = {
		icon = mam_city_thousand_minarets
		position = 9
		required_missions = { F69_one_court_a_vast_desert } 
		provinces_to_highlight = {  
			owned_by = ROOT
			NOT = {
				OR = {
					NOT = { has_terrain = desert }
					NOT = { has_terrain = coastal_desert }
				}
				OR = {
					has_building = temple
					has_building = cathedral
				}
				OR = {
					has_building = workshop
					has_building = counting_house
				}
				OR = {
					has_building = courthouse
					has_building = town_hall
				}
			}
		} 

		trigger = {  
			calc_true_if = {
				amount = 20
				all_owned_province = {
					OR = {
						has_terrain = desert
						has_terrain = coastal_desert
					}
					AND = {
						OR = {
							has_building = temple
							has_building = cathedral
						}
						OR = {
							has_building = workshop
							has_building = counting_house
						}
						OR = {
							has_building = courthouse
							has_building = town_hall
						}
					}
				}
			}
		} 

		effect = {  
			custom_tooltip = F69_molding_the_sands_tooltip
			hidden_effect = {
				set_country_flag = irkorzik_upgraded_sand_molding_1
				remove_estate_privilege = estate_church_sand_molding
				set_estate_privilege = estate_church_sand_molding
			}
		} 
	}
}
