J33_1_1 = {
	slot = 1
	generic = no
	ai = yes
	has_country_shield = yes
	potential = {
		tag = J33
	}
	
	J33_great_forest = {
		icon = mission_verdant_secret
		required_missions = { 
			J33_land_fall
		}
		position = 3
		
		provinces_to_highlight = {
			region = yyl_moista_region
			OR = {
				NOT = { owned_by = ROOT }
				NOT = { is_core = ROOT }
			}
			has_discovered = ROOT
		}
		
		trigger = {
			yyl_moista_region = {
				type = all
				owned_by = ROOT
				is_core = ROOT
			}
			if = {
				limit = { NOT = { has_harmonized_with = kukatodic_religion } }
				is_harmonizing_with = kukatodic_religion
			}
		}
		
		effect = {
			country_event = { id = flavor_kalsyto.2 }
			5110 = {
				add_base_tax = 2
				add_base_production = 2
				add_base_manpower = 2
			}
			5111 = {
				add_base_tax = 1
				add_base_production = 1
				add_base_manpower = 1
			}
			ogre_valley_region = {
				limit = {
					NOT = { is_core = ROOT }
					NOT = { is_permanent_claim = ROOT }
				}
				add_claim = ROOT
			}
		}
	}
	J33_valley_valak = {
		icon = mission_the_caucasus_rus
		required_missions = { 
			J33_great_forest
		}
		position = 4
		
		provinces_to_highlight = {
			region = ogre_valley_region
			NOT = { country_or_subject_holds = ROOT }
			has_discovered = ROOT
		}
		
		trigger = {
			ogre_valley_region = {
				type = all
				country_or_subject_holds = ROOT
			}
		}
		
		effect = {
			country_event = { id = flavor_kalsyto.4 }
			if = {
				limit = { has_harmonized_with = giantkin }
				add_harmony = 10
			}
			else_if = {
				limit = { is_harmonizing_with = giantkin }
				add_harmonization_progress = 33
			}
			else = {
				custom_tooltip = J33_harmonize_giant_tt
			}
			if = {
				limit = {
					NOT = {
						has_country_modifier = racial_pop_ogre_purge
						has_country_modifier = racial_pop_ogre_expulsion
					}
				}
				large_increase_of_ogre_tolerance_effect = yes
			}
		}
	}
	J33_world_we_know = {
		icon = mission_lit_harness_steppes
		required_missions = { 
			J33_valley_valak J33_tributaries_lakes
		}
		position = 5
		
		provinces_to_highlight = {
			superregion = forbidden_lands_superregion
			NOT = { country_or_subject_holds = ROOT }
			has_discovered = ROOT
		}
		
		trigger = {
			forbidden_lands_superregion = {
				type = all
				country_or_subject_holds = ROOT
			}
		}
		
		effect = {
			if = {
				limit = { has_country_modifier = J33_centaur_tolerance }
				random_subject_country = {
					limit = { 
						culture_group = centaur
						is_subject_of_type = democratic_sphere_of_influence_subject
					}
					west_forbidden_plains_region = {
						limit = { NOT = { area = adoi_filaenan_area } }
						cede_province = PREV
						add_core = PREV
					}
					east_forbidden_plains_region = {
						limit = { 
							NOT = {
								area = domn_filaenan_area
								area = orchekh_area
								area = aporlaen_area
							}
						}
						cede_province = PREV
						add_core = PREV
					}
					serpent_gift_region = {
						cede_province = PREV
						add_core = PREV
					}
					kalyin_conversion = yes
				}
			}
			else_if = {
				limit = { NOT = { mission_completed = J33_ancient_hatred } }
				custom_tooltip = J33_centaur_subject_tt
			}
			add_stability_or_adm_power = yes
			add_prestige = 25
			add_power_projection = {
				type = mission_rewards_power_projection
				amount = 25
			}
			if = {
				limit = { has_harmonized_with = centaur_religion }
				add_harmony = 10
			}
			else_if = {
				limit = { is_harmonizing_with = centaur_religion }
				add_harmonization_progress = 33
			}
			else = {
				custom_tooltip = J33_harmonize_centaur_tt
			}
		}
	}
	J33_land_we_love = {
		icon = mission_collect_yasak
		required_missions = { 
			J33_world_we_know
		}
		position = 6
		
		provinces_to_highlight = {
			has_discovered = ROOT
			OR = {
				region = west_forbidden_plains_region
				region = east_forbidden_plains_region
				region = serpent_gift_region
				region = nuzurbokh_region
			}
			owned_by = ROOT
			NOT = { is_core = ROOT } #Will be replaced by Settled
		}
		
		trigger = {
			all_owned_province = { 
				OR = {
					NOT = {
						region = west_forbidden_plains_region
						region = east_forbidden_plains_region
						region = serpent_gift_region
						region = nuzurbokh_region
					}
					is_state_core = ROOT #Will be replaced by Settled
				}
			}
		}
		
		effect = {
			add_country_modifier = {
				name = J33_mainland_settlement
				duration = 9125
			}
			north_yarikhoi_region = {
				add_permanent_province_modifier = {
					name = J33_mainland_migration
					duration = 9125
				}
			}
			south_yarikhoi_region = {
				add_permanent_province_modifier = {
					name = J33_mainland_migration
					duration = 9125
				}
			}
		}
	}
	J33_soil_we_toil = {
		icon = mission_pol_breadbasket_europe
		required_missions = { 
			J33_land_we_love
		}
		position = 7
		
		provinces_to_highlight = {
			has_discovered = ROOT
			region = nuzurbokh_region
			owner = {
				tag = ROOT
				NOT = {
					development_in_provinces = {
						value = 500
						region = nuzurbokh_region
					}
				}
			}
		}
		
		trigger = {
			development_in_provinces = {
				value = 500
				region = nuzurbokh_region
			}
		}
		
		effect = {
			custom_tooltip = nuzurbokh_dev_tt
			hidden_effect = {
				nuzurbokh_region = {
					if = {
						limit = { culture = urmanki }
						add_base_production = 1
					}
					else_if = {
						limit = { culture = orachav }
						add_base_manpower = 1
					}
					else = {
						add_base_tax = 1
					}
					if = {
						limit = {
							OR = {
								has_building = wharf
								has_building = weapons
								has_building = textile
								has_building = tradecompany
								has_building = farm_estate
								has_building = mills
								has_building = furnace
								has_building = plantations
							}
						}
						add_base_production = 1
					}
					else_if = {
						limit = {
							OR = {
								has_building = ramparts
								has_building = soldier_households
							}
						}
						add_base_manpower = 1
					}
					else_if = {
						limit = {
							OR = {
								has_building = impressment_offices
								has_building = state_house
								has_building = mage_tower
							}
						}
						add_base_tax = 1
					}
				}
			}
		}
	}
	J33_dungeons_deep = {
		icon = mission_anvil
		required_missions = { 
			J33_soil_we_toil
		}
		position = 8
		
		provinces_to_highlight = {
			has_discovered = ROOT
			has_terrain = dwarven_hold_surface
			NOT = { country_or_subject_holds = ROOT }
		}
		
		trigger = {
			num_of_provinces_owned_or_owned_by_subjects_with = {
				value = 2
				has_terrain = dwarven_hold_surface
			}
			num_of_provinces_owned_or_owned_by_subjects_with = {
				value = 15
				continent = serpentspine
			}
			has_government_power = {
				mechanic_type = kalsyto_influence_mechanic
				power_type = kalsyto_influence
				value = 20
			}
			treasury = 1500
		}
		
		effect = {
			add_treasury = -1500
			add_government_power = {
				mechanic_type = kalsyto_influence_mechanic
				power_type = kalsyto_influence
				value = -20
			}
			country_event = { id = flavor_kalsyto.12 days = 1095 }
		}
	}
	J33_prehistoric_grudges = {
		icon = mission_dwarf
		required_missions = { 
			J33_dungeons_deep
		}
		position = 9
		
		provinces_to_highlight = {
			has_discovered = ROOT
			NOT = { country_or_subject_holds = ROOT }
			continent = serpentspine
		}
		
		trigger = {
			num_of_provinces_owned_or_owned_by_subjects_with = {
				value = 5
				OR = {
					has_terrain = dwarven_hold
					has_terrain = dwarven_hold_surface
				}
				superregion = west_serpentspine_superregion
			}
			num_of_provinces_owned_or_owned_by_subjects_with = {
				value = 25
				superregion = west_serpentspine_superregion
			}
			num_of_provinces_owned_or_owned_by_subjects_with = {
				value = 5
				OR = {
					has_terrain = dwarven_hold
					has_terrain = dwarven_hold_surface
				}
				superregion = east_serpentspine_superregion
			}
			num_of_provinces_owned_or_owned_by_subjects_with = {
				value = 25
				superregion = east_serpentspine_superregion
			}
			any_subject_country = { culture_is_dwarven = yes }
			any_subject_country = { culture_is_goblin = yes }
			has_government_power = {
				mechanic_type = kalsyto_influence_mechanic
				power_type = kalsyto_influence
				value = 15
			}
			dip_power = 150
		}
		
		effect = {
			add_government_power = {
				mechanic_type = kalsyto_influence_mechanic
				power_type = kalsyto_influence
				value = -15
			}
			add_dip_power = -150
			country_event = { id = flavor_kalsyto.14 }
		}
	}
}

J33_2_1 = {
	slot = 2
	generic = no
	ai = yes
	has_country_shield = yes
	potential = {
		tag = J33
	}
	
	J33_land_fall = {
		icon = mission_mal_subjugate_zaf
		required_missions = { 
			J33_unify_island
		}
		position = 2
		
		provinces_to_highlight = {
			OR = {
				region = yyl_moista_region
				region = west_forbidden_plains_region
				region = east_forbidden_plains_region
				region = nuzurbokh_region
			}
			NOT = { country_or_non_sovereign_subject_holds = ROOT }
		}
		
		trigger = {
			yyl_moista_region = {
				owned_by = ROOT
				is_core = ROOT
			}
			west_forbidden_plains_region = {
				owned_by = ROOT
				is_core = ROOT
			}
			east_forbidden_plains_region = {
				owned_by = ROOT
				is_core = ROOT
			}
			nuzurbokh_region = {
				owned_by = ROOT
				is_core = ROOT
			}
		}
		
		effect = {
			add_country_modifier = {
				name = J33_reclamation
				duration = 7300
			}
			yyl_moista_region = {
				limit = {
					NOT = { is_core = ROOT }
					NOT = { is_permanent_claim = ROOT }
				}
				add_permanent_claim = ROOT
			}
			west_forbidden_plains_region = {
				limit = {
					NOT = { is_core = ROOT }
					NOT = { is_permanent_claim = ROOT }
				}
				add_permanent_claim = ROOT
			}
			east_forbidden_plains_region = {
				limit = {
					NOT = { is_core = ROOT }
					NOT = { is_permanent_claim = ROOT }
				}
				add_permanent_claim = ROOT
			}
			nuzurbokh_region = {
				limit = {
					NOT = { is_core = ROOT }
					NOT = { is_permanent_claim = ROOT }
				}
				add_permanent_claim = ROOT
			}
		}
	}
	J33_ancient_hatred = {
		icon = mission_centaur_shooting
		required_missions = { 
			J33_land_fall
		}
		position = 3
		
		provinces_to_highlight = {
			has_discovered = ROOT
			OR = {
				area = adoi_filaenan_area
				area = domn_filaenan_area
				area = orchekh_area
				area = aporlaen_area
			}
			OR = {
				NOT = { owned_by = ROOT }
				NOT = { owned_by = ROOT }
			}
		}
		
		trigger = {
			adoi_filaenan_area = {
				type = all
				owned_by = ROOT
				is_core = ROOT
			}
			domn_filaenan_area = {
				type = all
				owned_by = ROOT
				is_core = ROOT
			}
			orchekh_area = {
				type = all
				owned_by = ROOT
				is_core = ROOT
			}
			aporlaen_area = {
				type = all
				owned_by = ROOT
				is_core = ROOT
			}
		}
		
		effect = {
			country_event = { id = flavor_kalsyto.3 }
		}
	}
	J33_tributaries_lakes = {
		icon = mission_tree_fishing
		required_missions = { 
			J33_ancient_hatred J33_between_sea_and_mountain
		}
		position = 4
		
		provinces_to_highlight = {
			OR = {
				province_id = 5123
				province_id = 5129
				province_id = 5146
				province_id = 5189
				province_id = 5195
				province_id = 5217
			}
			OR = {
				NOT = { development = 20 }
				NOT = { has_dock_building_trigger = yes }
			}
			has_discovered = ROOT
		}
		
		trigger = {
			5123 = {
				has_dock_building_trigger = yes
				development = 20
			}
			5129 = {
				has_dock_building_trigger = yes
				development = 20
			}
			5146 = {
				has_dock_building_trigger = yes
				development = 20
			}
			5189 = {
				has_dock_building_trigger = yes
				development = 20
			}
			5195 = {
				has_dock_building_trigger = yes
				development = 20
			}
			5217 = {
				has_dock_building_trigger = yes
				development = 20
			}
		}
		
		effect = {
			fp_rivers = {
				add_permanent_province_modifier = {
					name = J33_path_interior
					duration = 7300
				}
			}
		}
	}
}

J33_2_WORKERS = {
	slot = 2
	generic = no
	ai = yes
	has_country_shield = yes
	potential = {
		tag = J33
		has_country_modifier = workers_of_the_lake
	}
	
	J33_resources_motherland = {
		icon = mission_pol_develop_countryside
		required_missions = { 
			J33_world_we_know
		}
		position = 6
		
		provinces_to_highlight = {
			has_discovered = ROOT
			OR = {
				region = west_forbidden_plains_region
				region = east_forbidden_plains_region
				region = nuzurbokh_region
			}
			OR = {
				NOT = {
					has_building = wharf
					has_building = weapons
					has_building = textile
					has_building = tradecompany
					has_building = farm_estate
					has_building = mills
					has_building = furnace
					has_building = plantations
				}
				NOT = { base_production = 6 }
			}
		}
		
		trigger = {
			num_of_owned_provinces_with = {
				value = 40
				OR = {
					region = west_forbidden_plains_region
					region = east_forbidden_plains_region
					region = nuzurbokh_region
				}
				OR = {
					has_building = wharf
					has_building = weapons
					has_building = textile
					has_building = tradecompany
					has_building = farm_estate
					has_building = mills
					has_building = furnace
					has_building = plantations
				}
				base_production = 6
			}
		}
		
		effect = {
			custom_tooltip = J33_resources_motherland_tt
			hidden_effect = {
				every_owned_province = {
					limit = {
						
					}
				}
			}
			add_country_modifier = {
				name = J33_resources_motherland
				duration = -1
			}
		}
	}
}
J33_2_SOLDIER = {
	slot = 2
	generic = no
	ai = yes
	has_country_shield = yes
	potential = {
		tag = J33
		has_country_modifier = soldiers_of_the_lake
	}
	
	J33_wrong_world = {
		icon = mission_head_on_spike
		required_missions = { 
			J33_world_we_know
		}
		position = 6
		
		provinces_to_highlight = {
			has_discovered = ROOT
			OR = {
				continent = asia
				superregion = bulwar_superregion
			}
			has_centaur_majority_trigger = yes
		}
		
		trigger = {
			asia = {
				type = all
				NOT = { has_centaur_majority_trigger = yes }
			}
			bulwar_superregion = {
				type = all
				NOT = { has_centaur_majority_trigger = yes }
			}
		}
		
		effect = {
			country_event = { id = flavor_kalsyto.8 }
			add_country_modifier = {
				name = J33_blood_blood
				duration = -1
			}
		}
	}
}
J33_2_TRADERS = {
	slot = 2
	generic = no
	ai = yes
	has_country_shield = yes
	potential = {
		tag = J33
		has_country_modifier = traders_of_the_lake
	}
	
	J33_trading_crescent = {
		icon = invest_in_the_rich_trades
		required_missions = { 
			J33_world_we_know
		}
		position = 6
		
		provinces_to_highlight = {
			has_discovered = ROOT
			province_group = fp_mainland_cot
			OR = {
				NOT = { development = 20 }
				NOT = { has_trade_building_trigger = yes }
			}
		}
		
		trigger = {
			fp_mainland_cot = {
				type = all
				development = 20
				has_trade_building_trigger = yes
			}
		}
		
		effect = {
			fp_mainland_cot = {
				add_permanent_province_modifier = {
					name = J33_lake_market
					duration = -1
				}
			}
			fp_yarikhoi_cot = {
				add_permanent_province_modifier = {
					name = J33_lake_market
					duration = -1
				}
			}
			add_country_modifier = {
				name = J33_trading_crescent
				duration = -1
			}
		}
	}
}
J33_2_GUNS = {
	slot = 2
	generic = no
	ai = yes
	has_country_shield = yes
	potential = {
		tag = J33
		has_country_modifier = guns_of_the_lake
	}
	
	J33_guns_steppe = {
		icon = mission_cossack_cavalry
		required_missions = { 
			J33_world_we_know
		}
		position = 6
		
		provinces_to_highlight = {
			has_discovered = ROOT
			has_terrain = steppe
			superregion = forbidden_lands_superregion
		}
		
		trigger = {
			development_in_provinces = {
				value = 300
				has_terrain = steppe
			}
			estate_loyalty = { estate = estate_cossacks loyalty = 50 }
			estate_influence = { estate = estate_cossacks influence = 50 }
		}
		
		effect = {
			add_country_modifier = {
				name = J33_orachav_auxiliaries
				duration = -1
			}
			custom_tooltip = J33_orachav_auxiliaries_tt
		}
	}
}
J33_2_CHILDREN = {
	slot = 2
	generic = no
	ai = yes
	has_country_shield = yes
	potential = {
		tag = J33
		has_country_modifier = childrens_of_the_lake
	}
	
	J33_triunic_road = {
		icon = mission_merchant_trip
		required_missions = { 
			J33_world_we_know
		}
		position = 6
		
		provinces_to_highlight = {
			has_discovered = ROOT
			OR = {
				region = west_forbidden_plains_region
				region = east_forbidden_plains_region
				region = nuzurbokh_region
			}
			OR = {
				NOT = { is_prosperous = yes }
				NOT = { num_of_times_expanded_infrastructure = 1 }
			}
		}
		
		trigger = {
			num_of_owned_provinces_with = {
				value = 30
				OR = {
					region = west_forbidden_plains_region
					region = east_forbidden_plains_region
					region = nuzurbokh_region
				}
				is_prosperous = yes
				num_of_times_expanded_infrastructure = 1
			}
		}
		
		effect = {
			triunic_road = {
				add_permanent_province_modifier = {
					name = federation_triunic_road
					duration = -1
				}
			}
			add_country_modifier = {
				name = J33_blue_sanctum
				duration = -1
			}
		}
	}
}
J33_2_CITIZENS = {
	slot = 2
	generic = no
	ai = yes
	has_country_shield = yes
	potential = {
		tag = J33
		has_country_modifier = citizens_of_the_lake
	}
	
	J33_never_again = {
		icon = mission_heated_battle
		required_missions = { 
			J33_world_we_know
		}
		position = 6
		
		provinces_to_highlight = {
			OR = {
				province_id = 5303
				province_id = 5052
				province_id = 5104
				province_id = 5088
				province_id = 5090
				province_id = 5171
				province_id = 5174
				province_id = 5181
				province_id = 5207
			}
			NOT = {
				AND = {
					province_has_current_tech_fort_trigger = yes
					has_building = ramparts
					has_manpower_building_trigger = yes
				}
			}
		}
		
		trigger = {
			5303 = {
				province_has_current_tech_fort_trigger = yes
				has_building = ramparts
				has_manpower_building_trigger = yes
			}
			5052 = {
				province_has_current_tech_fort_trigger = yes
				has_building = ramparts
				has_manpower_building_trigger = yes
			}
			5104 = {
				province_has_current_tech_fort_trigger = yes
				has_building = ramparts
				has_manpower_building_trigger = yes
			}
			5088 = {
				province_has_current_tech_fort_trigger = yes
				has_building = ramparts
				has_manpower_building_trigger = yes
			}
			5090 = {
				province_has_current_tech_fort_trigger = yes
				has_building = ramparts
				has_manpower_building_trigger = yes
			}
			5171 = {
				province_has_current_tech_fort_trigger = yes
				has_building = ramparts
				has_manpower_building_trigger = yes
			}
			5174 = {
				province_has_current_tech_fort_trigger = yes
				has_building = ramparts
				has_manpower_building_trigger = yes
			}
			5181 = {
				province_has_current_tech_fort_trigger = yes
				has_building = ramparts
				has_manpower_building_trigger = yes
			}
			5207 = {
				province_has_current_tech_fort_trigger = yes
				has_building = ramparts
				has_manpower_building_trigger = yes
			}
		}
		
		effect = {
			add_country_modifier = {
				name = J33_homeland_secured
				duration = -1
			}
			5303 = {
				add_permanent_province_modifier = {
					name = J33_plains_lookout
					duration = -1
				}
			}
			5052 = {
				add_permanent_province_modifier = {
					name = J33_plains_lookout
					duration = -1
				}
			}
			5104 = {
				add_permanent_province_modifier = {
					name = J33_plains_lookout
					duration = -1
				}
			}
			5088 = {
				add_permanent_province_modifier = {
					name = J33_plains_lookout
					duration = -1
				}
			}
			5090 = {
				add_permanent_province_modifier = {
					name = J33_plains_lookout
					duration = -1
				}
			}
			5171 = {
				add_permanent_province_modifier = {
					name = J33_plains_lookout
					duration = -1
				}
			}
			5174 = {
				add_permanent_province_modifier = {
					name = J33_plains_lookout
					duration = -1
				}
			}
			5181 = {
				add_permanent_province_modifier = {
					name = J33_plains_lookout
					duration = -1
				}
			}
			5207 = {
				add_permanent_province_modifier = {
					name = J33_plains_lookout
					duration = -1
				}
			}
		}
	}
}

J33_2_2 = {
	slot = 2
	generic = no
	ai = yes
	has_country_shield = yes
	potential = {
		tag = J33
	}
	
	J33_the_individualists = {
		icon = mission_forest_shrine
		required_missions = {
			J33_land_we_love
		}
		position = 7
		
		provinces_to_highlight = {
			has_discovered = ROOT
			region = nuzurbokh_region
			NOT = { religion = kalyin_worshippers }
		}
		
		trigger = {
			OR = {
				calc_true_if = {
					has_harmonized_with = enuuk_followers
					has_harmonized_with = yukel_followers
					has_harmonized_with = kodave_followers
					amount = 2
				}
				nuzurbokh_region = {
					type = all
					religion = kalyin_worshippers
				}
			}
		}
		
		effect = {
			custom_tooltip = J33_individualists_tt
			if = {
				limit = {
					NOT = { has_harmonized_with = enuuk_followers }
					has_harmonized_with = yukel_followers
					has_harmonized_with = kodave_followers
				}
				add_harmonized_religion = enuuk_followers
			}
			else_if = {
				limit = {
					has_harmonized_with = enuuk_followers
					NOT = { has_harmonized_with = yukel_followers }
					has_harmonized_with = kodave_followers
				}
				add_harmonized_religion = yukel_followers
			}
			else_if = {
				limit = {
					has_harmonized_with = enuuk_followers
					has_harmonized_with = yukel_followers
					NOT = { has_harmonized_with = kodave_followers }
				}
				add_harmonized_religion = kodave_followers
			}
			if = {
				limit = {
					nuzurbokh_region = {
						type = all
						religion = kalyin_worshippers
					}
				}
				custom_tooltip = J33_individualists_2_tt
			}
		}
	}
	J33_redialue = {
		icon = mission_magical_forest
		required_missions = { 
			J33_the_individualists J33_silence_command
		}
		position = 8
		
		provinces_to_highlight = {
			has_discovered = ROOT
			continent = asia
			owner = {
				num_of_rebel_controlled_provinces = 1
				is_subject_of = ROOT
			}
		}
		
		trigger = {
			OR = {
				current_age = age_of_absolutism
				current_age = age_of_revolutions
			}
			NOT = { num_of_rebel_controlled_provinces = 1 }
			all_subject_country = { 
				OR = {
					NOT = { num_of_rebel_controlled_provinces = 1 }
					NOT = { capital_scope = { continent = asia } }
				}
			}
			OR = {
				has_harmonized_with = halessi
				has_harmonized_with = raheni
			}
		}
		
		effect = {
			if = {
				limit = { has_global_flag = rending_active }
				country_event = { id = flavor_kalsyto.13 }
			}
			else = { custom_tooltip = J33_rending_tt }
		}
	}
	J33_onyx_damestear = {
		icon = mission_scepter_of_scepters
		required_missions = { 
			J33_prehistoric_grudges J33_redialue
		}
		position = 10
		
		provinces_to_highlight = {
			has_discovered = ROOT
			region = demon_hills_region
			OR = {
				NOT = { country_or_subject_holds = ROOT }
				area_for_scope_province = { NOT = { has_building = mage_tower }}
			}
		}
		
		trigger = {
			demon_hills_region = {
				type = all
				country_or_subject_holds = ROOT
			}
			OR = {
				yambioka_area = { has_building = mage_tower }
				yambioka_area = {
					type = all
					has_manufactory_trigger = yes
				}
			}
			OR = {
				sugroltona_area = { has_building = mage_tower }
				sugroltona_area = {
					type = all
					has_manufactory_trigger = yes
				}
			}
			OR = {
				unbeksu_area = { has_building = mage_tower }
				unbeksu_area = {
					type = all
					has_manufactory_trigger = yes
				}
			}
			OR = {
				mogutian_area = { has_building = mage_tower }
				mogutian_area = {
					type = all
					has_manufactory_trigger = yes
				}
			}
			OR = {
				moryokang_area = { has_building = mage_tower }
				moryokang_area = {
					type = all
					has_manufactory_trigger = yes
				}
			}
			5430 = { development = 30 }
			if = {
				limit = {
					OR = {
						has_country_flag = LF_mages_banned
						has_country_flag = banned_magic
					}
				}
				estate_influence = { estate = estate_artificers influence = 40 }
				has_estate_privilege = estate_artificers_trained_mage_hunters
			}
			else_if = {
				limit = { has_estate_privilege = estate_mages_organization_onyxguard }
				estate_influence = { estate = estate_mages influence = 30 }
				has_estate_privilege = estate_mages_patronage_of_the_magical_arts
				estate_influence = { estate = estate_artificers influence = 30 }
				has_estate_privilege = estate_artificers_trained_mage_hunters
			}
			else = {
				estate_influence = { estate = estate_mages influence = 40 }
				has_estate_privilege = estate_mages_patronage_of_the_magical_arts
			}
		}
		
		effect = {
			if = {
				limit = {
					OR = {
						has_country_flag = LF_mages_banned
						has_country_flag = banned_magic
					}
				}
				set_country_flag = unlocked_artifice_invention_black_damestear_bullets
				clr_country_flag = researching_artifice_invention_black_damestear_bullets
				country_event = { id = artifice_inventions.910 }
				custom_tooltip = J33_artifice_only_tt
				set_country_flag = J33_artifice_only_flag
			}
			else_if = {
				limit = { has_estate_privilege = estate_mages_organization_onyxguard }
				custom_tooltip = J33_onyxguard_tt
				set_country_flag = J33_onyxguard_flag
			}
			else = {
				hidden_effect = { clear_mages_organization_effect = yes }
				set_estate_privilege = estate_mages_organization_state
				custom_tooltip = J33_mage_only_tt
				set_country_flag = J33_mage_only_flag
			}
		}
	}
	J33_common_diplomatic_policy = {
		icon = mission_among_the_great_powers
		required_missions = { 
			J33_onyx_damestear J33_broader_approach
		}
		position = 11
		
		provinces_to_highlight = {
			has_discovered = ROOT
			owner = {
				kalsyto_CDS = yes
				OR = {
					liberty_desire = 50
					NOT = { kalsyto_gp_influencing = yes }
				}
			}
		}
		
		trigger = {
			kalsyto_CDS_num = { num = 10 }
			all_subject_country = {
				OR = {
					NOT = { kalsyto_CDS = yes }
					AND = {
						NOT = { liberty_desire = 50 }
						kalsyto_gp_influencing = yes
					}
				}
			}
			government_reform_progress = 400
		}
		
		effect = {
			change_government_reform_progress = -400
			if = {
				limit = { has_country_modifier = workers_of_the_lake }
				remove_country_modifier = J33_workers_of_the_world_mod
				add_country_modifier = {
					name = J33_workers_of_the_world_mod_2
					duration = -1
				}
			}
			else_if = {
				limit = { has_country_modifier = soldiers_of_the_lake }
				remove_country_modifier = J33_tactical_readiness_mod
				add_country_modifier = {
					name = J33_tactical_readiness_mod_2
					duration = -1
				}
			}
			else_if = {
				limit = { has_country_modifier = traders_of_the_lake }
				remove_country_modifier = J33_global_trade_mod
				add_country_modifier = {
					name = J33_global_trade_mod_2
					duration = -1
				}
			}
			else_if = {
				limit = { has_country_modifier = guns_of_the_lake }
				remove_country_modifier = J33_make_them_equal_mod
				add_country_modifier = {
					name = J33_make_them_equal_mod_2
					duration = -1
				}
			}
			else_if = {
				limit = { has_country_modifier = childrens_of_the_lake }
				remove_country_modifier = J33_one_family_mod
				add_country_modifier = {
					name = J33_one_family_mod_2
					duration = -1
				}
			}
			else_if = {
				limit = { has_country_modifier = citizens_of_the_lake }
				remove_country_modifier = J33_crescent_upon_halann_mod
				add_country_modifier = {
					name = J33_crescent_upon_halann_mod_2
					duration = -1
				}
			}
		}
	}
	J33_our_constitution = {
		icon = mission_the_sudebnik
		required_missions = { 
			J33_common_diplomatic_policy J33_crumbling_crowns
		}
		position = 13
		
		provinces_to_highlight = {
			has_discovered = ROOT
			country_or_subject_holds = ROOT
			NOT = { has_building = town_hall }
		}
		
		trigger = {
			is_hegemon = yes
			NOT = { any_known_country = { is_hegemon = yes } }
			num_of_provinces_owned_or_owned_by_subjects_with = {
				value = 1000
				has_building = town_hall
			}
			if = {
				limit = { has_country_modifier = workers_of_the_lake }
				num_of_provinces_owned_or_owned_by_subjects_with = {
					value = 1000
					OR = {
						has_building = wharf
						has_building = weapons
						has_building = textile
						has_building = tradecompany
						has_building = farm_estate
						has_building = mills
						has_building = furnace
						has_building = plantations
					}
				}
			}
			else_if = {
				limit = { has_country_modifier = soldiers_of_the_lake }
				num_of_provinces_owned_or_owned_by_subjects_with = {
					value = 500
					has_building = soldier_households
				}
			}
			else_if = {
				limit = { has_country_modifier = traders_of_the_lake }
				num_of_provinces_owned_or_owned_by_subjects_with = {
					value = 500
					has_building = grand_shipyard
				}
			}
			else_if = {
				limit = { has_country_modifier = guns_of_the_lake }
				num_of_provinces_owned_or_owned_by_subjects_with = {
					value = 1000
					has_building = counting_house
				}
			}
			else_if = {
				limit = { has_country_modifier = childrens_of_the_lake }
				num_of_provinces_owned_or_owned_by_subjects_with = {
					value = 1000
					has_building = university
				}
			}
			else_if = {
				limit = { has_country_modifier = citizens_of_the_lake }
				num_of_provinces_owned_or_owned_by_subjects_with = {
					value = 1000
					has_building = conscription_center
				}
			}
		}
		
		effect = {
			country_event = { id = flavor_kalsyto.20 }
		}
	}
}

J33_3_1 = {
	slot = 3
	generic = no
	ai = yes
	has_country_shield = yes
	potential = {
		tag = J33
	}
	
	J33_unify_island = {
		icon = defend_the_city
		required_missions = { }
		position = 1
		
		provinces_to_highlight = {
			OR = {
				region = south_yarikhoi_region
				region = north_yarikhoi_region
			}
			OR = {
				NOT = { owned_by = ROOT }
				NOT = { is_core = ROOT }
			}
		}
		
		trigger = {
			if = {
				limit = { ai = no }
				stability = 2
			}
			south_yarikhoi_region = {
				type = all
				owned_by = ROOT
				is_core = ROOT
			}
			north_yarikhoi_region = {
				type = all
				owned_by = ROOT
				is_core = ROOT
			}
		}
		
		effect = {
			country_event = { id = flavor_kalsyto.1 }
			if = {
				limit = { has_country_modifier = workers_of_the_lake }
				add_country_modifier = {
					name = J33_worker_intro
					duration = 3650
				}
			}
			else_if = {
				limit = { has_country_modifier = soldiers_of_the_lake }
				add_country_modifier = {
					name = J33_soldier_intro
					duration = 3650
				}
			}
			else_if = {
				limit = { has_country_modifier = traders_of_the_lake }
				add_country_modifier = {
					name = J33_trader_intro
					duration = 3650
				}
			}
			else_if = {
				limit = { has_country_modifier = guns_of_the_lake }
				add_country_modifier = {
					name = J33_gun_intro
					duration = 3650
				}
			}
			else_if = {
				limit = { has_country_modifier = childrens_of_the_lake }
				add_country_modifier = {
					name = J33_children_intro
					duration = 3650
				}
			}
			else_if = {
				limit = { has_country_modifier = citizens_of_the_lake }
				add_country_modifier = {
					name = J33_citizen_intro
					duration = 3650
				}
			}
		}
	}
}
	
J33_3_WORKERS = {
	slot = 3
	generic = no
	ai = yes
	has_country_shield = yes
	potential = {
		tag = J33
		has_country_modifier = workers_of_the_lake
	}
	
	J33_workshops_crescent = {
		icon = mission_have_manufactories
		required_missions = { J33_unify_island }
		position = 2
		
		provinces_to_highlight = {
			OR = {
				region = south_yarikhoi_region
				region = north_yarikhoi_region
			}
			owned_by = ROOT
			NOT = { has_production_building_trigger = yes }
		}
		
		trigger = {
			num_of_owned_provinces_with = {
				value = 40
				OR = {
					region = south_yarikhoi_region
					region = north_yarikhoi_region
				}
				has_production_building_trigger = yes
			}
		}
		
		effect = {
			hidden_effect = {
				complete_mission = J33_workshops_crescent
				complete_mission = J33_strategical_readiness
				complete_mission = J33_treasure_fleet
				complete_mission = J33_guns_foundry
				complete_mission = J33_no_one_left_behind
				complete_mission = J33_citizens_duty
			}
			custom_tooltip = J33_workers_hubs_tt
			tooltip = {
				5266 = {
					add_permanent_province_modifier = { 
						name = J33_worker_hub
						duration = -1
					}
				}
			}
			hidden_effect = {
				every_province = { 
					limit = {
						OR = {
							region = south_yarikhoi_region
							region = north_yarikhoi_region
						}
						OR = {
							has_terrain = mountain
							has_terrain = forest
						}
					}
					add_permanent_province_modifier = { 
						name = J33_worker_hub
						duration = -1
					}
				}
			}
			add_country_modifier = { 
				name = J33_worker_collectivisation
				duration = 7300
			}
		}
	}
}
J33_3_SOLDIER = {
	slot = 3
	generic = no
	ai = yes
	has_country_shield = yes
	potential = {
		tag = J33
		has_country_modifier = soldiers_of_the_lake
	}
	
	J33_strategical_readiness = {
		icon = mission_assemble_an_army
		required_missions = { J33_unify_island }
		position = 2
		
		provinces_to_highlight = {
			OR = {
				region = south_yarikhoi_region
				region = north_yarikhoi_region
			}
			owned_by = ROOT
			OR = {
				NOT = { has_manpower_building_trigger = yes }
				NOT = { has_forcelimit_building_trigger = yes }
			}
		}
		
		trigger = {
			num_of_owned_provinces_with = {
				value = 30
				OR = {
					region = south_yarikhoi_region
					region = north_yarikhoi_region
				}
				has_manpower_building_trigger = yes
			}
			num_of_owned_provinces_with = {
				value = 20
				OR = {
					region = south_yarikhoi_region
					region = north_yarikhoi_region
				}
				has_forcelimit_building_trigger = yes
			}
		}
		
		effect = {
			hidden_effect = {
				complete_mission = J33_workshops_crescent
				complete_mission = J33_strategical_readiness
				complete_mission = J33_treasure_fleet
				complete_mission = J33_guns_foundry
				complete_mission = J33_no_one_left_behind
				complete_mission = J33_citizens_duty
			}
			custom_tooltip = J33_soldiers_war_tt
			tooltip = {
				5298 = {
					add_permanent_province_modifier = { 
						name = J33_soldiers_war
						duration = -1
					}
				}
			}
			hidden_effect = {
				every_province = { 
					limit = {
						OR = {
							region = south_yarikhoi_region
							region = north_yarikhoi_region
						}
					}
					add_permanent_province_modifier = { 
						name = J33_soldiers_war
						duration = -1
					}
				}
			}
			add_country_modifier = { 
				name = J33_soldiers_march
				duration = 7300
			}
		}
	}
}
J33_3_TRADERS = {
	slot = 3
	generic = no
	ai = yes
	has_country_shield = yes
	potential = {
		tag = J33
		has_country_modifier = traders_of_the_lake
	}
	
	J33_treasure_fleet = {
		icon = secure_the_republic
		required_missions = { J33_unify_island }
		position = 2
		
		provinces_to_highlight = {
			OR = {
				AND = {
					has_port = yes
					NOT = { has_dock_building_trigger = yes }
				}
				AND = {
					has_port = yes
					NOT = { has_shipyard_building_trigger = yes }
				}
				AND = {
					province_id = 5226
					OR = {
						NOT = { development = 40 }
						NOT = { province_has_center_of_trade_of_level = 3 }
						NOT = { has_trade_building_trigger = yes }
					}
				}
				AND = {
					OR = {
						region = south_yarikhoi_region
						region = north_yarikhoi_region
					}
					province_has_center_of_trade_of_level = 1
					NOT = { province_has_center_of_trade_of_level = 2 }
				}
			}
			owned_by = ROOT
		}
		
		trigger = {
			5226 = {
				owned_by = ROOT
				development = 40
				province_has_center_of_trade_of_level = 3
				has_trade_building_trigger = yes
			}
			num_of_owned_provinces_with = {
				value = 30
				OR = {
					region = south_yarikhoi_region
					region = north_yarikhoi_region
				}
				has_shipyard_building_trigger = yes
			}
			num_of_owned_provinces_with = {
				value = 15
				OR = {
					region = south_yarikhoi_region
					region = north_yarikhoi_region
				}
				has_dock_building_trigger = yes
			}
			num_of_owned_provinces_with = {
				value = 12
				OR = {
					region = south_yarikhoi_region
					region = north_yarikhoi_region
				}
				province_has_center_of_trade_of_level = 2
			}
		}
		
		effect = {
			hidden_effect = {
				complete_mission = J33_workshops_crescent
				complete_mission = J33_strategical_readiness
				complete_mission = J33_treasure_fleet
				complete_mission = J33_guns_foundry
				complete_mission = J33_no_one_left_behind
				complete_mission = J33_citizens_duty
			}
			5226 = {
				add_permanent_province_modifier = {
					name = J33_traders_port
					duration = -1
				}
			}
			add_country_modifier = { 
				name = J33_traders_seaworthiness
				duration = 7300
			}
		}
	}
}
J33_3_GUNS = {
	slot = 3
	generic = no
	ai = yes
	has_country_shield = yes
	potential = {
		tag = J33
		has_country_modifier = guns_of_the_lake
	}
	
	J33_guns_foundry = {
		icon = industrialized_rhineland
		required_missions = { J33_unify_island }
		position = 2
		
		provinces_to_highlight = {
			OR = {
				region = south_yarikhoi_region
				region = north_yarikhoi_region
			}
			OR = {
				trade_goods = iron
				trade_goods = copper
			}
			NOT = { has_manufactory_trigger = yes }
		}
		
		trigger = {
			num_of_owned_provinces_with = {
				value = 11
				OR = {
					region = south_yarikhoi_region
					region = north_yarikhoi_region
				}
				OR = {
					trade_goods = iron
					trade_goods = copper
				}
				has_manufactory_trigger = yes
			}
		}
		
		effect = {
			hidden_effect = {
				complete_mission = J33_workshops_crescent
				complete_mission = J33_strategical_readiness
				complete_mission = J33_treasure_fleet
				complete_mission = J33_guns_foundry
				complete_mission = J33_no_one_left_behind
				complete_mission = J33_citizens_duty
			}
			custom_tooltip = J33_gun_foundry_tt
			tooltip = {
				5260 = {
					add_permanent_province_modifier = { 
						name = J33_gun_foundry
						duration = -1
					}
				}
			}
			hidden_effect = {
				every_province = { 
					limit = {
						OR = {
							region = south_yarikhoi_region
							region = north_yarikhoi_region
						}
						OR = {
							trade_goods = iron
							trade_goods = copper
						}
					}
					add_permanent_province_modifier = { 
						name = J33_gun_foundry
						duration = -1
					}
				}
			}
			add_country_modifier = { 
				name = J33_gun_drilling
				duration = 7300
			}
		}
	}
}
J33_3_CHILDREN = {
	slot = 3
	generic = no
	ai = yes
	has_country_shield = yes
	potential = {
		tag = J33
		has_country_modifier = childrens_of_the_lake
	}
	
	J33_no_one_left_behind = {
		icon = mission_city_prosperity
		required_missions = { J33_unify_island }
		position = 2
		
		provinces_to_highlight = {
			OR = {
				region = south_yarikhoi_region
				region = north_yarikhoi_region
			}
			NOT = { development = 10 }
		}
		
		trigger = {
			south_yarikhoi_region = {
				type = all
				development = 10
			}
			north_yarikhoi_region = {
				type = all
				development = 10
			}
		}
		
		effect = {
			hidden_effect = {
				complete_mission = J33_workshops_crescent
				complete_mission = J33_strategical_readiness
				complete_mission = J33_treasure_fleet
				complete_mission = J33_guns_foundry
				complete_mission = J33_no_one_left_behind
				complete_mission = J33_citizens_duty
			}
			custom_tooltip = J33_children_dev_tt
			tooltip = { 
				5278 = {
					random_list = {
						33 = { add_base_tax = 1 }
						33 = { add_base_production = 1 }
						33 = { add_base_manpower = 1 }
					}
				}
			}
			hidden_effect = {
				every_province = { 
					limit = {
						OR = {
							region = south_yarikhoi_region
							region = north_yarikhoi_region
						}
						has_terrain = farmlands
					}
					add_random_development = 1
				}
			}
			add_country_modifier = { 
				name = J33_children_none_behind
				duration = 7300
			}
		}
	}
}
J33_3_CITIZENS = {
	slot = 3
	generic = no
	ai = yes
	has_country_shield = yes
	potential = {
		tag = J33
		has_country_modifier = citizens_of_the_lake
	}
	
	J33_citizens_duty = {
		icon = form_the_swiss_guard
		required_missions = { J33_unify_island }
		position = 2
		
		provinces_to_highlight = {
			OR = {
				region = south_yarikhoi_region
				region = north_yarikhoi_region
			}
			has_terrain = city_terrain
			has_port = yes
			OR = {
				NOT = { development = 40 }
				NOT = { has_manpower_building_trigger = yes }
				NOT = { has_forcelimit_building_trigger = yes }
				NOT = { has_dock_building_trigger = yes }
				NOT = { has_shipyard_building_trigger = yes }
			}
		}
		
		trigger = {
			num_of_owned_provinces_with = {
				value = 5
				OR = {
					region = south_yarikhoi_region
					region = north_yarikhoi_region
				}
				has_terrain = city_terrain
				development = 40
				has_manpower_building_trigger = yes
				has_forcelimit_building_trigger = yes
				has_dock_building_trigger = yes
				has_shipyard_building_trigger = yes
			}
		}
		
		effect = {
			hidden_effect = {
				complete_mission = J33_workshops_crescent
				complete_mission = J33_strategical_readiness
				complete_mission = J33_treasure_fleet
				complete_mission = J33_guns_foundry
				complete_mission = J33_no_one_left_behind
				complete_mission = J33_citizens_duty
			}
			custom_tooltip = J33_citizen_city_tt
			tooltip = {
				5253 = {
					add_permanent_province_modifier = {
						name = J33_citizen_city
						duration = -1
					}
				}
			}
			hidden_effect = {
				every_province = {
					limit = {
						OR = {
							region = south_yarikhoi_region
							region = north_yarikhoi_region
						}
						has_terrain = city_terrain
					}
					add_permanent_province_modifier = { 
						name = J33_citizen_city
						duration = -1
					}
				}
			}
			add_country_modifier = { 
				name = J33_citizen_leadership
				duration = 7300
			}
		}
	}
}

J33_3_2 = {
	slot = 3
	generic = no
	ai = yes
	has_country_shield = yes
	potential = {
		tag = J33
	}
	
	J33_between_sea_and_mountain = {
		icon = prosper_in_piedmont
		required_missions = { 
			J33_land_fall
		}
		position = 3
		
		provinces_to_highlight = {
			region = nuzurbokh_region
			OR = {
				NOT = { owned_by = ROOT }
				NOT = { is_core = ROOT }
			}
			NOT = {
				area = baizoi_area
				area = area_1_area
			}
			has_discovered = ROOT
		}
		
		trigger = {
			nuzurbokh_region = {
				type = all
				OR = {
					AND = {
						owned_by = ROOT
						is_core = ROOT
					}
					area = baizoi_area
					area = area_1_area
				}
			}
			estate_loyalty = { estate = estate_cossacks loyalty = 50 }
			NOT = {
				num_of_rebel_armies = 1
				war_exhaustion = 0.01
			}
		}
		
		effect = {
			custom_tooltip = J33_discover_gozengun_tt
			hidden_effect = { 
				north_haless_superregion = { discover_country = ROOT }
				every_country = {
					limit = { capital_scope = { superregion = north_haless_superregion } }
					forbidden_lands_superregion = { discover_country = PREV }
				}
			}
			nuzurbokh_region = {
				limit = { owned_by = ROOT }
				add_nationalism = -5
				add_local_autonomy = -20
			}
		}
	}
	J33_first_debates = {
		icon = jap_strengthen_bakuhan_system
		required_missions = { }
		position = 4
		
		provinces_to_highlight = {
			has_discovered = ROOT
			province_group = triunic_cities
			NOT = { has_courthouse_building_trigger = yes }
		}
		
		trigger = {
			if = {
				limit = { has_country_modifier = workers_of_the_lake }
				OR = {
					has_country_modifier = J33_islanders_manifest_mod
					has_country_modifier = J33_metallic_mobilization_mod
					5171 = { trade_goods = coal }
					has_country_modifier = J33_black_hands_mod
				}
			}
			else_if = {
				limit = { has_country_modifier = soldiers_of_the_lake }
				OR = {
					has_country_modifier = J33_protect_and_serve_mod
					has_country_modifier = J33_meritocratic_army_mod
					has_country_modifier = J33_military_council_mod
					custom_trigger_tooltip = {
						tooltip = center_peel_tooltip_req
						has_country_flag = J33_center_peel_unit
					}
				}
			}
			else_if = {
				limit = { has_country_modifier = traders_of_the_lake }
				OR = {
					AND = {
						4367 = { has_province_modifier = JY_LF_port }
						custom_trigger_tooltip = {
							tooltip = J33_expand_fleet_available_tootlip_req
							has_country_flag = treasure_fleet_expansion_available
						}
					}
					has_country_modifier = J33_merchant_armada_mod
					has_country_modifier = J33_reaching_out_mod
					has_country_modifier = J33_foreign_legions_mod
				}
			}
			else_if = {
				limit = { has_country_modifier = guns_of_the_lake }
				OR = {
					has_country_modifier = J33_ninth_amendment_mod
					has_country_modifier = J33_the_bfc_mod
					has_country_modifier = J33_blue_star_honor_mod
					has_country_modifier = J33_floating_gun_mod
				}
			}
			else_if = {
				limit = { has_country_modifier = childrens_of_the_lake }
				OR = {
					has_country_modifier = J33_state_council_mod
					has_country_modifier = J33_breaking_point_mod
					5258 = { has_province_modifier = J33_great_urbanization_mod }
					has_country_modifier = J33_eternal_prosperity_mod
				}
			}
			else_if = {
				limit = { has_country_modifier = citizens_of_the_lake }
				OR = {
					has_country_modifier = J33_freedom_conquest_mod
					has_country_modifier = J33_martial_logistics_mod
					has_country_modifier = J33_kukaein_mod
					custom_trigger_tooltip = {
						tooltip = J33_new_world_order_req
						has_country_flag = J33_NWO_flag
					}
				}
			}
			triunic_cities = {
				type = all
				has_courthouse_building_trigger = yes
			}
		}
		
		effect = {
			add_country_modifier = {
				name = J33_hotbed_politics
				duration = 7300
			}
		}
	}
	J33_violet_dawn = {
		icon = mission_lantern_festival
		required_missions = { 
			J33_first_debates
		}
		position = 5
		
		provinces_to_highlight = {
			has_discovered = ROOT
			owner = { 
				tag = Y15
				NOT = { has_opinion = { who = ROOT value = 150 } }
			}
		}
		
		trigger = {
			if = {
				limit = { exists = Y15 }
				Y15 = { has_opinion = { who = ROOT value = 150 } }
			}
			else = {
				if = {
					limit = { mission_completed = J33_establishing_contacts }
					has_government_power = {
						mechanic_type = kalsyto_influence_mechanic
						power_type = kalsyto_influence
						value = 20
					}
				}	
				else = { mission_completed = J33_establishing_contacts }
			}
			OR = {
				statesman = 3
				diplomat = 3
			}
		}
		
		effect = {
			if = {
				limit = { exists = Y15 }
				Y15 = { country_event = { id = flavor_kalsyto.5 days = 1 } }
			}
			else = {
				add_government_power = {
					mechanic_type = kalsyto_influence_mechanic
					power_type = kalsyto_influence
					value = -20
				}
				beidugang_area = {
					limit = {
						NOT = { is_core = ROOT }
						NOT = { is_permanent_claim = ROOT }
					}
					add_claim = ROOT
				}
				hidden_effect = { yanshen_superregion = { discover_country = ROOT } }
			}
			add_country_modifier = {
				name = J33_uncovering_haless
				duration = 7300
			}
		}
	}
	J33_know_tyranny = {
		icon = jap_balance_shinokosho
		required_missions = { 
			J33_violet_dawn J33_peer_republic
		}
		position = 6
		
		provinces_to_highlight = {
			has_discovered = ROOT
			country_or_subject_holds = R62
		}
		
		trigger = {
			if = {
				limit = { R62 = { total_development = 300 } }
				if = {
					limit = { spymaster = 3 }
					R62 = {
						has_spy_network_from = {
							who = ROOT
							value = 40
						}
					}
				}
				else = {
					R62 = {
						has_spy_network_from = {
							who = ROOT
							value = 80
						}
					}
					custom_trigger_tooltip = { tooltip = J33_spymaster_tt }
				}
				calc_true_if = {
					all_known_country = {
						capital_scope = {
							continent = asia
							NOT = { superregion = north_haless_superregion }
						}
						OR = {
							alliance_with = ROOT
							is_subject_of = ROOT
						}
					}
					amount = 3
				}
				has_government_power = {
					mechanic_type = kalsyto_influence_mechanic
					power_type = kalsyto_influence
					value = 80
				}
				if = {
					limit = { truce_with = R62 }
					NOT = { truce_with = R62 }
				}
				is_at_war = no
			}
			else = { R62 = { NOT = { total_development = 300 } } }
		}
		
		effect = {
			if = {
				limit = { R62 = { total_development = 250 } }
				add_government_power = {
					mechanic_type = kalsyto_influence_mechanic
					power_type = kalsyto_influence
					value = -80
				}
				if = {
					limit = { spymaster = 3 }
					R62 = {
						add_spy_network_from = {
							who = ROOT
							value = -40
						}
					}
				}
				else = {
					R62 = {
						add_spy_network_from = {
							who = ROOT
							value = -80
						}
					}
				}
				country_event = { id = flavor_kalsyto.10 }
				tooltip = {
					add_country_modifier = {
						name = J33_resisting_the_command
						duration = 7300
					}
				}
				custom_tooltip = J33_command_breakaway
				R62 = {
					every_subject_country = {
						limit = { has_opinion = { who = J33 value = 0 } }
						add_liberty_desire = 100
						set_country_flag = J33_command_liberated
					}
				}
			}
			else = { 
				add_prestige = 5
				set_country_flag = J33_command_bypass
			}
			custom_tooltip = J33_liberation_GP_tt
			set_country_flag = J33_liberation_GP
		}
	}
	J33_silence_command = {
		icon = mission_heated_battle
		required_missions = { 
			J33_know_tyranny
		}
		position = 7
		
		provinces_to_highlight = {
			has_discovered = ROOT
			owner = { tag = R62 }
		}
		
		trigger = {
			if = {
				limit = { has_country_flag = J33_command_bypass }
				any_subject_country = {
					capital_scope = { superregion = yanshen_superregion }
					kalsyto_CDS = yes
				}
			}
			else = {
				R62 = { NOT = { total_development = 300 } }
				R62 = { NOT = { num_of_subjects = 1 } }
			}
		}
		
		effect = {
			if = {
				limit = { NOT = { has_country_flag = J33_command_bypass } }
				add_harmony = 20
				add_power_projection = {
					type = mission_rewards_power_projection
					amount = 25
				}
			}
			set_country_flag = J33_liberator_haless
			custom_tooltip = J33_liberator_haless_tt
			country_event = { id = flavor_kalsyto.11 }
		}
	}
	J33_liberty_blossoms = {
		icon = mission_lotus_flower
		required_missions = { 
			J33_silence_command J33_reform_parliament
		}
		position = 9
		
		trigger = {
			kalsyto_CDS_num = { num = 4 }
			custom_trigger_tooltip = {
				tooltip = J33_A_W_tt
				has_country_flag = J33_A_W
			}
			custom_trigger_tooltip = {
				tooltip = J33_R_I_tt
				has_country_flag = J33_R_I
			}
			custom_trigger_tooltip = {
				tooltip = J33_R_E_tt
				has_country_flag = J33_R_E
			}
		}
		
		effect = {
			if = {
				limit = { has_country_modifier = workers_of_the_lake }
				set_country_flag = J33_worker_button
				custom_tooltip = J33_worker_button_tt
			}
			else_if = {
				limit = { has_country_modifier = soldiers_of_the_lake }
				set_country_flag = J33_soldier_button
				custom_tooltip = J33_soldier_button_tt
			}
			else_if = {
				limit = { has_country_modifier = traders_of_the_lake }
				set_country_flag = J33_trader_button
				custom_tooltip = J33_trader_button_tt
			}
			else_if = {
				limit = { has_country_modifier = guns_of_the_lake }
				set_country_flag = J33_gun_button
				custom_tooltip = J33_gun_button_tt
			}
			else_if = {
				limit = { has_country_modifier = childrens_of_the_lake }
				set_country_flag = J33_child_button
				custom_tooltip = J33_child_button_tt
			}
			else_if = {
				limit = { has_country_modifier = citizens_of_the_lake }
				set_country_flag = J33_citizen_button
				custom_tooltip = J33_citizen_button_tt
			}
		}
	}
	J33_broader_approach = {
		icon = balance_of_power
		required_missions = { 
			J33_liberty_blossoms
		}
		position = 10
		
		provinces_to_highlight = {
			has_discovered = ROOT
			continent = europe
			NOT = { country_or_subject_holds = ROOT }
		}
		
		trigger = {
			calc_true_if = {
				all_subject_country = { capital_scope = { continent = europe } }
				amount = 3
			}
			OR = {
				dip_power = 300
				full_idea_group = spy_ideas
			}
			reform_level = 13
		}
		
		effect = {
			if = {
				limit = { NOT = { full_idea_group = spy_ideas } }
				add_dip_power = -300
			}
			add_government_reform = lake_emissary_liberty
			add_country_modifier = {
				name = J33_global_effort
				duration = 7300
			}
			custom_tooltip = J33_global_effort_tt
		}
	}
	J33_ignite_blackpowder = {
		icon = weaken_france
		required_missions = { 
			J33_broader_approach
		}
		position = 11
		
		provinces_to_highlight = {
			owner = {
				is_great_power = yes
				capital_scope = { continent = europe }
			}
		}
		
		trigger = {
			current_age = age_of_revolutions
			if = {
				limit = { any_other_great_power = { capital_scope = { continent = europe } } }
				if = {
					limit = { spymaster = 3 }
					custom_trigger_tooltip = {
						tooltip = J33_GP_C_40_tt
						any_other_great_power = {
							capital_scope = { continent = europe }
							has_spy_network_from = {
								who = ROOT
								value = 40
							}
						}
					}
				}
				else = {
					custom_trigger_tooltip = {
						tooltip = J33_GP_C_80_tt
						any_other_great_power = {
							capital_scope = { continent = europe }
							has_spy_network_from = {
								who = ROOT
								value = 80
							}
						}
					}
					custom_trigger_tooltip = { tooltip = J33_spymaster_tt }
				}
			}
			else = {
				if = {
					limit = { spymaster = 3 }
					8 = {
						owner = {
							has_spy_network_from = {
								who = ROOT
								value = 40
							}
						}
					}
				}
				else = {
					8 = {
						owner = {
							has_spy_network_from = {
								who = ROOT
								value = 80
							}
						}
					}
					custom_trigger_tooltip = { tooltip = J33_spymaster_tt }
				}
			}
			num_of_provinces_owned_or_owned_by_subjects_with = {
				value = 10
				trade_goods = damestear
				has_manufactory_trigger = yes
			}
		}
		
		effect = {
			if = {
				limit = { any_other_great_power = { capital_scope = { continent = europe } } }
				if = {
					limit = { spymaster = 3 }
					random_known_country = { 
						limit = { 
							is_great_power = yes
							capital_scope = { continent = europe }
							has_spy_network_from = {
								who = ROOT
								value = 40
							}
						}
						add_spy_network_from = {
							who = ROOT
							value = -40
						}
						if = {
							limit = { NOT = { any_province = { is_center_of_revolution = yes } } }
							capital_scope = { spawn_center_of_revolution = THIS }
						}
						country_event = { id = flavor_kalsyto.16 }
					}
				}
				else = {
					random_known_country = { 
						limit = { 
							is_great_power = yes
							capital_scope = { continent = europe }
							has_spy_network_from = {
								who = ROOT
								value = 40
							}
						}
						add_spy_network_from = {
							who = ROOT
							value = -40
						}
						if = {
							limit = { NOT = { any_province = { is_center_of_revolution = yes } } }
							capital_scope = { spawn_center_of_revolution = THIS }
						}
						country_event = { id = flavor_kalsyto.16 }
					}
				}
			}
			else = {
				if = {
					limit = { spymaster = 3 }
					8 = { 
						owner = {
							add_spy_network_from = {
								who = ROOT
								value = -40
							}
							if = {
								limit = { NOT = { any_province = { is_center_of_revolution = yes } } }
								capital_scope = { spawn_center_of_revolution = THIS }
							}
							country_event = { id = flavor_kalsyto.16 }
						}
					}
				}
				else = {
					8 = { 
						owner = {
							add_spy_network_from = {
								who = ROOT
								value = -80
							}
							if = {
								limit = { NOT = { any_province = { is_center_of_revolution = yes } } }
								capital_scope = { spawn_center_of_revolution = THIS }
							}
							country_event = { id = flavor_kalsyto.16 }
						}
					}
				}
			}
			custom_tooltip = J33_revolution_boom_tt
			set_global_flag = J33_revolution_boom_flag
		}
	}
	J33_crumbling_crowns = {
		icon = mission_dismantle_hre
		required_missions = { 
			J33_common_diplomatic_policy J33_ignite_blackpowder
		}
		position = 12
		
		provinces_to_highlight = {
			has_discovered = ROOT
			owner = {
				government = monarchy
				is_great_power = yes
				NOT = { has_country_modifier = discontent_sowed }
			}
		}
		
		trigger = {
			any_subject_country = { is_revolutionary = yes }
			if = {
				limit = {
					calc_true_if = {
						all_country = {
							government = monarchy
							is_great_power = yes
						}
						amount = 3
					}
				}
				calc_true_if = {
					all_known_country = {
						government = monarchy
						is_great_power = yes
						has_country_modifier = discontent_sowed
					}
					amount = 3
				}
			}
			else = {
				all_known_country = {
					OR = {
						NOT = {
							AND = {
								government = monarchy
								is_great_power = yes
							}
						}
						has_country_modifier = discontent_sowed
					}
				}
			}
		}
		
		effect = {
			country_event = { id = flavor_kalsyto.17 }
			set_global_flag = J33_world_ignited_flag
			custom_tooltip = J33_world_ignited_tt
		}
	}
	J33_tyrannys_end = {
		icon = french_revolution
		required_missions = { 
			J33_crumbling_crowns
		}
		position = 13
		
		provinces_to_highlight = {
			has_discovered = ROOT
			NOT = { country_or_subject_holds = ROOT }
			is_city = yes
		}
		
		trigger = {
			kalsyto_CDS_num = { num = 18 }
			any_subject_country = { 
				capital_scope = { continent = europe }
				kalsyto_CDS = yes
			}
			any_subject_country = { 
				capital_scope = { continent = africa }
				kalsyto_CDS = yes
			}
			any_subject_country = { 
				capital_scope = { continent = serpentspine }
				kalsyto_CDS = yes
			}
			any_subject_country = { 
				capital_scope = { continent = north_america }
				kalsyto_CDS = yes
			}
			any_subject_country = { 
				capital_scope = { continent = south_america }
				kalsyto_CDS = yes
			}
		}
		
		effect = {
			add_prestige = 100
			add_power_projection = {
				type = mission_rewards_power_projection
				amount = 100
			}
			country_event = { id = flavor_kalsyto.21 }
		}
	}
}

J33_4_1 = {
	slot = 4
	generic = no
	ai = yes
	has_country_shield = yes
	potential = {
		tag = J33
	}
	
	J33_establishing_contacts = {
		icon = mission_manchu_warrior
		required_missions = { 
			J33_unify_island
		}
		position = 2
		
		provinces_to_highlight = {
			owner = {
				government = republic
				NOT = {
					alliance_with = ROOT
					is_subject_of = ROOT
					tag = J33
				}
			}
			has_discovered = ROOT
		}
		
		trigger = {
			OR = {
				calc_true_if = {
					all_known_country = { 
						has_opinion = { who = ROOT value = 150 }
						capital_scope = { NOT = { superregion = forbidden_lands_superregion } }
					}
					amount = 2
				}
				any_ally = { government = republic }
			}
			republican_tradition = 90
		}
		
		effect = {
			define_explorer = {
				shock = 2
				fire = 2
				manuever = 4
				siege = 2
			}
			add_government_reform = lake_bastion_of_democracy
			hidden_effect = {
				set_variable = {
					which = kalsyto_influence_counter
					value = 0
				}
				kalsyto_faction_clear = yes
			}
		}
	}
	J33_land_apocalypse = {
		icon = mission_chinese_general_riding
		required_missions = { 
			J33_between_sea_and_mountain J33_establishing_contacts J33_kalyins_crescent
		}
		position = 4
		
		provinces_to_highlight = {
			OR = {
				area = baizoi_area
				area = area_1_area
				superregion = north_haless_superregion
			}
			NOT = { country_or_subject_holds = ROOT }
			is_city = yes
			has_discovered = ROOT
		}
		
		trigger = {
			baizoi_area = {
				type = all
				country_or_subject_holds = ROOT
			}
			area_1_area = {
				type = all
				country_or_subject_holds = ROOT
			}
			any_subject_country = {
				capital_scope = { superregion = north_haless_superregion }
				is_subject_of_type = democratic_sphere_of_influence_subject
				religion = kalyin_worshippers
			}
		}
		
		effect = {
			custom_tooltip = J33_gozengun_claims
			random_subject_country = {
				limit = {
					capital_scope = { superregion = north_haless_superregion }
					is_subject_of_type = democratic_sphere_of_influence_subject
					religion = kalyin_worshippers
				}
				north_haless_superregion = {
					limit = {
						NOT = { is_core = PREV }
						NOT = { is_permanent_claim = PREV }
					}
					add_permanent_claim = PREV
				}
			}
		}
	}
	J33_peer_republic = {
		icon = mission_discussion_arch
		required_missions = { 
			J33_land_apocalypse
		}
		position = 5
		
		provinces_to_highlight = {
			superregion = north_haless_superregion
			NOT = { country_or_subject_holds = ROOT }
			has_discovered = ROOT
			NOT = { province_id = 6838 }
		}
		
		trigger = {
			any_subject_country = {
				capital_scope = { superregion = north_haless_superregion }
				kalsyto_CDS = yes
			}
		}
		
		effect = {
			custom_tooltip = J33_friends_CDS_tt
			set_country_flag = J33_friends_CDS
			every_subject_country = { 
				limit = { kalsyto_CDS = yes }
				add_historical_friend = J33
				J33 = { add_historical_friend = PREV }
			}
		}
	}
	J33_mirrored_chamber = {
		icon = mission_seren_cathedral
		required_missions = { 
			J33_peer_republic J33_mere_glimpse
		}
		position = 7
		
		provinces_to_highlight = {
			has_discovered = ROOT
			OR = {
				AND = {
					trade_goods = glass
					superregion = forbidden_lands_superregion
				}
				AND = {
					trade_goods = gems
					superregion = forbidden_lands_superregion
				}
				AND = {
					trade_goods = gold
					owner = {
						tag = ROOT
						is_subject_of = ROOT
					}
				}
			}
		}
		
		trigger = {
			development_in_provinces = {
				value = 100
				trade_goods = glass
			}
			development_in_provinces = {
				value = 90
				trade_goods = gems
			}
			num_of_provinces_owned_or_owned_by_subjects_with = {
				value = 5
				trade_goods = gold
				base_production = 5
			}
			capital_scope = { development = 50 }
			treasury = 2000
		}
		
		effect = {
			add_treasury = -2000
			custom_tooltip = J33_mirrored_chamber_tt
			set_country_flag = J33_mirrored_chamber_flag
		}
	}
	J33_reform_parliament = {
		icon = appease_the_estates
		required_missions = { 
			J33_silence_command J33_mirrored_chamber
		}
		position = 8
		
		trigger = {
			if = {
				limit = { has_country_modifier = workers_of_the_lake }
				calc_true_if = {
					has_country_modifier = J33_islanders_manifest_mod
					has_country_modifier = J33_metallic_mobilization_mod
					5171 = { trade_goods = coal }
					has_country_modifier = J33_black_hands_mod
					amount = 2
				}
			}
			else_if = {
				limit = { has_country_modifier = soldiers_of_the_lake }
				calc_true_if = {
					has_country_modifier = J33_protect_and_serve_mod
					has_country_modifier = J33_meritocratic_army_mod
					has_country_modifier = J33_military_council_mod
					custom_trigger_tooltip = {
						tooltip = center_peel_tooltip_req
						has_country_flag = J33_center_peel_unit
					}
					amount = 2
				}
			}
			else_if = {
				limit = { has_country_modifier = traders_of_the_lake }
				calc_true_if = {
					AND = {
						4367 = { has_province_modifier = JY_LF_port }
						custom_trigger_tooltip = {
							tooltip = J33_expand_fleet_available_tootlip_req
							has_country_flag = treasure_fleet_expansion_available
						}
					}
					has_country_modifier = J33_merchant_armada_mod
					has_country_modifier = J33_reaching_out_mod
					has_country_modifier = J33_foreign_legions_mod
					amount = 2
				}
			}
			else_if = {
				limit = { has_country_modifier = guns_of_the_lake }
				calc_true_if = {
					has_country_modifier = J33_ninth_amendment_mod
					has_country_modifier = J33_the_bfc_mod
					has_country_modifier = J33_blue_star_honor_mod
					has_country_modifier = J33_floating_gun_mod
					amount = 2
				}
			}
			else_if = {
				limit = { has_country_modifier = childrens_of_the_lake }
				calc_true_if = {
					has_country_modifier = J33_state_council_mod
					has_country_modifier = J33_breaking_point_mod
					5258 = { has_province_modifier = J33_great_urbanization_mod }
					has_country_modifier = J33_eternal_prosperity_mod
					amount = 2
				}
			}
			else_if = {
				limit = { has_country_modifier = citizens_of_the_lake }
				calc_true_if = {
					has_country_modifier = J33_freedom_conquest_mod
					has_country_modifier = J33_martial_logistics_mod
					has_country_modifier = J33_kukaein_mod
					custom_trigger_tooltip = {
						tooltip = J33_new_world_order_req
						has_country_flag = J33_NWO_flag
					}
					amount = 2
				}
			}
			NOT = {
				faction_influence = {
					faction = kalsyto_dazjal_0
					influence = 40
				}
				faction_influence = {
					faction = kalsyto_sojdal_0
					influence = 40
				}
				faction_influence = {
					faction = kalsyto_sovk_0
					influence = 40
				}
				faction_influence = {
					faction = kalsyto_bhu_0
					influence = 40
				}
				faction_influence = {
					faction = kalsyto_boshal_0
					influence = 40
				}
				faction_influence = {
					faction = kalsyto_kasuk_0
					influence = 40
				}
			}
			stability = 3
			government_reform_progress = 100
		}
		
		effect = {
			change_government_reform_progress = -100
			add_country_modifier = {
				name = J33_modern_parliament
				duration = -1
			}
		}
	}
}
	
J33_4_WORKERS = {
	slot = 4
	generic = no
	ai = yes
	has_country_shield = yes
	potential = {
		tag = J33
		has_country_modifier = workers_of_the_lake
	}
	
	J33_workers_of_the_world = {
		icon = establish_oktoberfest
		required_missions = { 
			J33_reform_parliament
		}
		position = 9
		
		provinces_to_highlight = {
			has_discovered = ROOT
			country_or_subject_holds = ROOT
			NOT = {
				has_building = farm_estate
				has_building = textile
			}
			OR = {
				trade_goods = grain
				trade_goods = livestock
				trade_goods = wine
				trade_goods = fungi
				trade_goods = serpentbloom
				trade_goods = wool
				trade_goods = cloth
				trade_goods = silk
				trade_goods = dyes
			}
		}
		
		trigger = {
			num_of_owned_provinces_with = {
				value = 10
				OR = {
					has_building = farm_estate
					has_building = textile
				}
			}
			calc_true_if = {
				all_subject_country = {
					kalsyto_CDS = yes
					num_of_owned_provinces_with = {
						value = 10
						OR = {
							has_building = farm_estate
							has_building = textile
						}
					}
				}
				amount = 5
			}
			OR = {
				production_leader = { trade_goods = iron }
				production_leader = { trade_goods = copper }
				production_leader = { trade_goods = glass }
				production_leader = { trade_goods = naval_supplies }
				production_leader = { trade_goods = paper }
			}
		}
		
		effect = {
			if = {
				limit = { NOT = { mission_completed = J33_common_diplomatic_policy } }
				add_country_modifier = {
					name = J33_workers_of_the_world_mod
					duration = -1
				}
			}
			custom_tooltip = J33_workers_of_the_world_tt
			set_country_flag = J33_workers_of_the_world_flag
			hidden_effect = {
				complete_mission = J33_workers_of_the_world
				complete_mission = J33_tactical_readiness
				complete_mission = J33_global_trade
				complete_mission = J33_make_them_equal
				complete_mission = J33_one_family
				complete_mission = J33_crescent_upon_halann
			}
		}
	}
}
J33_4_SOLDIER = {
	slot = 4
	generic = no
	ai = yes
	has_country_shield = yes
	potential = {
		tag = J33
		has_country_modifier = soldiers_of_the_lake
	}
	
	J33_tactical_readiness = {
		icon = king_of_poland
		required_missions = { 
			J33_reform_parliament
		}
		position = 9
		
		provinces_to_highlight = {
			has_discovered = ROOT
			country_or_subject_holds = ROOT
			NOT = { has_building = soldier_households }
			OR = {
				trade_goods = grain
				trade_goods = livestock
				trade_goods = fish
				trade_goods = fungi
				trade_goods = serpentbloom
				trade_goods = wine
			}
		}
		
		trigger = {
			num_of_owned_provinces_with = {
				value = 10
				has_building = soldier_households
			}
			calc_true_if = {
				all_subject_country = {
					kalsyto_CDS = yes
					num_of_owned_provinces_with = {
						value = 10
						has_building = soldier_households
					}
				}
				amount = 5
			}
			army_size = 500
		}
		
		effect = {
			if = {
				limit = { NOT = { mission_completed = J33_common_diplomatic_policy } }
				add_country_modifier = {
					name = J33_tactical_readiness_mod
					duration = -1
				}
			}
			custom_tooltip = J33_tactical_readiness_tt
			set_country_flag = J33_tactical_readiness_flag
			hidden_effect = {
				complete_mission = J33_workers_of_the_world
				complete_mission = J33_tactical_readiness
				complete_mission = J33_global_trade
				complete_mission = J33_make_them_equal
				complete_mission = J33_one_family
				complete_mission = J33_crescent_upon_halann
			}
		}
	}
}
J33_4_TRADERS = {
	slot = 4
	generic = no
	ai = yes
	has_country_shield = yes
	potential = {
		tag = J33
		has_country_modifier = traders_of_the_lake
	}
	
	J33_global_trade = {
		icon = mission_rb_a_mighty_fleet
		required_missions = { 
			J33_reform_parliament
		}
		position = 9
		
		provinces_to_highlight = {
			has_discovered = ROOT
			country_or_subject_holds = ROOT
			province_has_center_of_trade_of_level = 1
			OR = {
				NOT = { province_has_center_of_trade_of_level = 2 }
				NOT = { has_trade_building_trigger = yes }
			}
		}
		
		trigger = {
			num_of_provinces_owned_or_owned_by_subjects_with = {
				value = 50
				province_has_center_of_trade_of_level = 2
				has_trade_building_trigger = yes
			}
			OR = {
				AND = {
					monthly_income = 1000
					trade_income_percentage = 0.50
				}
				AND = {
					monthly_income = 1500
					trade_income_percentage = 0.33
				}
			}
		}
		
		effect = {
			if = {
				limit = { NOT = { mission_completed = J33_common_diplomatic_policy } }
				add_country_modifier = {
					name = J33_global_trade_mod
					duration = -1
				}
			}
			custom_tooltip = J33_global_trade_tt
			set_country_flag = J33_global_trade_flag
			hidden_effect = {
				complete_mission = J33_workers_of_the_world
				complete_mission = J33_tactical_readiness
				complete_mission = J33_global_trade
				complete_mission = J33_make_them_equal
				complete_mission = J33_one_family
				complete_mission = J33_crescent_upon_halann
			}
		}
	}
}
J33_4_GUNS = {
	slot = 4
	generic = no
	ai = yes
	has_country_shield = yes
	potential = {
		tag = J33
		has_country_modifier = guns_of_the_lake
	}
	
	J33_make_them_equal = {
		icon = polish_subjects
		required_missions = { 
			J33_reform_parliament
		}
		position = 9
		
		provinces_to_highlight = {
			has_discovered = ROOT
			country_or_subject_holds = ROOT
			NOT = { has_building = weapons }
			OR = {
				trade_goods = copper
				trade_goods = iron
				trade_goods = mithril
			}
		}
		
		trigger = {
			num_of_owned_provinces_with = {
				value = 10
				has_building = weapons
			}
			calc_true_if = {
				all_subject_country = {
					kalsyto_CDS = yes
					num_of_owned_provinces_with = {
						value = 10
						has_building = weapons
					}
				}
				amount = 5
			}
			has_leader_with = {
				fire = 6
				general = yes
			}
			mil = 6
		}
		
		effect = {
			if = {
				limit = { NOT = { mission_completed = J33_common_diplomatic_policy } }
				add_country_modifier = {
					name = J33_make_them_equal_mod
					duration = -1
				}
			}
			custom_tooltip = J33_make_them_equal_tt
			set_country_flag = J33_make_them_equal_flag
			hidden_effect = {
				complete_mission = J33_workers_of_the_world
				complete_mission = J33_tactical_readiness
				complete_mission = J33_global_trade
				complete_mission = J33_make_them_equal
				complete_mission = J33_one_family
				complete_mission = J33_crescent_upon_halann
			}
		}
	}
}
J33_4_CHILDREN = {
	slot = 4
	generic = no
	ai = yes
	has_country_shield = yes
	potential = {
		tag = J33
		has_country_modifier = childrens_of_the_lake
	}
	
	J33_one_family = {
		icon = mission_arverynn_street
		required_missions = { 
			J33_reform_parliament
		}
		position = 9
		
		provinces_to_highlight = {
			has_discovered = ROOT
			country_or_subject_holds = ROOT
			OR = {
				has_terrain = farmlands
				has_terrain = city_terrain
			}
			NOT = { development = 30 }
		}
		
		trigger = {
			num_of_owned_provinces_with = {
				value = 10
				OR = {
					has_terrain = farmlands
					has_terrain = city_terrain
				}
				development = 30
			}
			calc_true_if = {
				all_subject_country = {
					kalsyto_CDS = yes
					num_of_owned_provinces_with = {
						value = 10
						OR = {
							has_terrain = farmlands
							has_terrain = city_terrain
						}
						development = 30
					}
				}
				amount = 5
			}
			development_in_provinces = {
				value = 1200
				OR = {
					region = north_yarikhoi_region
					region = south_yarikhoi_region
				}
			}
		}
		
		effect = {
			if = {
				limit = { NOT = { mission_completed = J33_common_diplomatic_policy } }
				add_country_modifier = {
					name = J33_one_family_mod
					duration = -1
				}
			}
			custom_tooltip = J33_one_family_tt
			set_country_flag = J33_one_family_flag
			hidden_effect = {
				complete_mission = J33_workers_of_the_world
				complete_mission = J33_tactical_readiness
				complete_mission = J33_global_trade
				complete_mission = J33_make_them_equal
				complete_mission = J33_one_family
				complete_mission = J33_crescent_upon_halann
			}
		}
	}
}
J33_4_CITIZENS = {
	slot = 4
	generic = no
	ai = yes
	has_country_shield = yes
	potential = {
		tag = J33
		has_country_modifier = citizens_of_the_lake
	}
	
	J33_crescent_upon_halann = {
		icon = all_bases_covered
		required_missions = { 
			J33_reform_parliament
		}
		position = 9
		
		provinces_to_highlight = {
			has_discovered = ROOT
			country_or_subject_holds = ROOT
			NOT = { has_forcelimit_building_trigger = yes }
		}
		
		trigger = {
			num_of_owned_provinces_with = {
				value = 50
				has_forcelimit_building_trigger = yes
			}
			calc_true_if = {
				all_subject_country = {
					kalsyto_CDS = yes
					num_of_owned_provinces_with = {
						value = 50
						has_forcelimit_building_trigger = yes
					}
				}
				amount = 5
			}
			num_of_heavy_ship = 150
		}
		
		effect = {
			if = {
				limit = { NOT = { mission_completed = J33_common_diplomatic_policy } }
				add_country_modifier = {
					name = J33_crescent_upon_halann_mod
					duration = -1
				}
			}
			custom_tooltip = J33_crescent_upon_halann_tt
			set_country_flag = J33_crescent_upon_halann_flag
			hidden_effect = {
				complete_mission = J33_workers_of_the_world
				complete_mission = J33_tactical_readiness
				complete_mission = J33_global_trade
				complete_mission = J33_make_them_equal
				complete_mission = J33_one_family
				complete_mission = J33_crescent_upon_halann
			}
		}
	}
}

J33_4_2 = {
	slot = 4
	generic = no
	ai = yes
	has_country_shield = yes
	potential = {
		tag = J33
	}
	J33_assembly_hundred_faces = {
		icon = immaculate_government
		required_missions = { 
			J33_liberty_blossoms J33_opening_eyes
		}
		position = 10
		
		provinces_to_highlight = {
			has_discovered = ROOT
			owner = {
				is_subject_of = ROOT
				NOT = { has_opinion = { who = ROOT value = 150 } }
			}
		}
		
		trigger = {
			is_at_war = no
			prestige = 50
			republican_tradition = 90
			religious_unity = 0.95
			calc_true_if = {
				all_subject_country = { has_opinion = { who = ROOT value = 150 } }
				amount = 20
			}
			any_subject_country = { capital_scope = { continent = europe } }
			any_subject_country = { capital_scope = { continent = africa } }
			any_subject_country = { capital_scope = { continent = serpentspine } }
			any_subject_country = { capital_scope = { continent = north_america } }
			any_subject_country = { capital_scope = { continent = south_america } }
		}
		
		effect = {
			add_government_power = {
				mechanic_type = kalsyto_influence_mechanic
				power_type = kalsyto_influence
				value = 50
			}
			add_harmony = 30
			add_country_modifier = {
				name = J33_assembling_faces
				duration = 10950
			}
			country_event = { id = flavor_kalsyto.15 }
		}
	}
	J33_salvation_ruin = {
		icon = mission_manifest_destiny
		required_missions = { 
			J33_broader_approach J33_assembly_hundred_faces
		}
		position = 11
		
		provinces_to_highlight = {
			has_discovered = ROOT
			OR = {
				superregion = eordand_superregion
				superregion = ynn_superregion
				superregion = taychend_superregion
				superregion = kheionai_superregion
			}
			NOT = { country_or_subject_holds = ROOT }
		}
		
		trigger = {
			calc_true_if = {
				has_harmonized_with = aelantiri
				has_harmonized_with = cheshoshi_religion
				has_harmonized_with = harafic
				has_harmonized_with = effelai
				has_harmonized_with = taychendi
				has_harmonized_with = ynnic
				has_harmonized_with = devandi
				has_harmonized_with = eltibhen_religion
				has_harmonized_with = amadian_religion
				amount = 2
			}
			any_subject_country = {
				kalsyto_CDS = yes
				capital_scope = {
					OR = {
						superregion = eordand_superregion
						superregion = ynn_superregion
						superregion = taychend_superregion
						superregion = kheionai_superregion
					}
				}
			}
		}
		
		effect = {
			largest_increase_of_ruinborn_tolerance_effect = yes
			hidden_effect = { every_subject_country = { largest_increase_of_ruinborn_tolerance_effect = yes } }
			set_global_flag = J33_agitated_colonies_flag
			custom_tooltip = J33_agitated_colonies_tt
			hidden_effect = {
				every_country = {
					limit = { is_colonial_nation = yes }
					add_liberty_desire = 25
				}
			}
		}
	}
	J33_monotheism = {
		icon = mission_magy
		required_missions = { 
			J33_ignite_blackpowder J33_salvation_ruin
		}
		position = 12
		
		provinces_to_highlight = {
			has_discovered = ROOT
			OR = {
				owner = {
					AND = {
						tag = Z97
						NOT = {
							is_subject_of = ROOT
							has_opinion = { who = ROOT value = 150 }
						}
					}
				}
				religion = ravelian
			}
			NOT = { country_or_subject_holds = ROOT }
		}
		
		trigger = {
			has_harmonized_with = cannorian
			is_religion_enabled = ravelian
			if = {
				limit = { exists = Z97 }
				Z97 = {
					OR = {
						is_subject_of = ROOT
						has_opinion = { who = ROOT value = 100 }
					}
				}
			}
			if = {
				limit = {
					calc_true_if = {
						all_province = { religion = ravelian }
						amount = 100
					}
				}
				num_of_provinces_owned_or_owned_by_subjects_with = {
					value = 100
					religion = ravelian
				}
			}
			else = {
				custom_trigger_tooltip = {
					tooltip = J33_ravelians_tt
					all_province = {
						OR = {
							NOT = { religion = ravelian }
							NOT = { continent = europe }
							country_or_subject_holds = ROOT
						}
					}
				}
			}
		}
		
		effect = {
			country_event = { id = flavor_kalsyto.19 }
		}
	}
}

J33_5 = {
	slot = 5
	generic = no
	ai = yes
	has_country_shield = yes
	potential = {
		tag = J33
	}
	
	J33_temple_goddess = {
		icon = mission_asian_city
		required_missions = { }
		position = 1
		
		provinces_to_highlight = {
			province_id = 5290
			OR = {
				NOT = { base_tax = 10 }
				NOT = { has_tax_building_trigger = yes }
				NOT = { religion = kalyin_worshippers }
			}
		}
		
		trigger = {
			5290 = {
				base_tax = 10
				has_tax_building_trigger = yes
				OR = {
					religion = kalyin_worshippers
					tolerance_to_this = 3
				}
			}
			if = {
				limit = { has_dlc = "Leviathan" }
				5290 = {
					owned_by = ROOT
					has_great_project = {
						type = temple_kodave
						tier = 2
					}
				}
			}
		}
		
		effect = {
			add_harmony = 25
			if = {
				limit = { 5290 = { has_building = temple } }
				5290 = {
					remove_building = temple
					add_building = cathedral
				}
			}
			if = {
				limit = { has_dlc = "Leviathan" }
				5290 = {
					add_permanent_province_modifier = {
						name = J33_kalyin_temple
						duration = 9125
					}
				}
			}
			if = {
				limit = { NOT = { has_friendly_reformation_center = yes } }
				5290 = { add_reform_center = kalyin_worshippers }
			}
		}
	}
	J33_kalyins_crescent = {
		icon = mission_green_village
		required_missions = { 
			J33_temple_goddess
		}
		position = 3
		
		provinces_to_highlight = {
			OR = {
				region = south_yarikhoi_region
				region = north_yarikhoi_region
			}
			NOT = { 
				religion = kalyin_worshippers
				tolerance_to_this = 3
			}
		}
		
		trigger = {
			south_yarikhoi_region = {
				type = all
				OR = {
					religion = kalyin_worshippers
					tolerance_to_this = 3
				}
			}
			north_yarikhoi_region = {
				type = all
				OR = {
					religion = kalyin_worshippers
					tolerance_to_this = 3
				}
			}
			if = {
				limit = { NOT = { kalyin_worshippers = 3 } }
				kalyin_worshippers = 3
			}
		}
		
		effect = {
			add_harmony = 25
			add_republican_tradition = 10
			custom_tooltip = J33_conversions_tt
			hidden_effect = {
				every_owned_province = {
					limit = {
						tolerance_to_this = 3
						OR = {
							region = north_yarikhoi_region
							region = south_yarikhoi_region
						}
						NOT = { religion = kalyin_worshippers }
					}
					change_religion = kalyin_worshippers
				}
			}
		}
	}
	J33_one_soul_one_goddess = {
		icon = mission_women_prayer
		required_missions = { 
			J33_land_apocalypse J33_kalyins_crescent
		}
		position = 5
		
		provinces_to_highlight = {
			OR = {
				AND = {
					region = moduk_region
					NOT = { country_or_subject_holds = ROOT }
				}
				AND = {
					province_id = 6803
					OR = {
						NOT = { country_or_subject_holds = ROOT }
						NOT = { development = 10 }
					}
				}
			}
			has_discovered = ROOT
		}
		
		trigger = {
			moduk_region = {
				type = all
				country_or_subject_holds = ROOT
			}
			6804 = {
				development = 10
				country_or_subject_holds = ROOT
			}
			if = {
				limit = { NOT = { has_harmonized_with = supreme_spirit } }
				is_harmonizing_with = supreme_spirit
			}
		}
		
		effect = {
			country_event = { id = flavor_kalsyto.7 }
		}
	}
	J33_mere_glimpse = {
		icon = kingdom_of_heaven
		required_missions = { 
			J33_one_soul_one_goddess
		}
		position = 6
		
		provinces_to_highlight = {
			has_discovered = ROOT
			province_group = triunic_cities
			NOT = { has_tax_building_trigger = yes }
		}
		
		trigger = {
			num_of_harmonized = 5
			triunic_cities = {
				type = all
				has_tax_building_trigger = yes
			}
			estate_loyalty = { estate = estate_church loyalty = 70 }
			has_estate_privilege = estate_church_clerical_ministers
		}
		
		effect = {
			country_event = { id = flavor_kalsyto.9 }
			add_country_modifier = {
				name = J33_squinting_light
				duration = -1
			}
		}
	}
	J33_those_deemed_monsters = {
		icon = mission_harpy_diplomats
		required_missions = { 
			J33_mere_glimpse
		}
		position = 7
		
		provinces_to_highlight = {
			has_discovered = ROOT
			owner = {
				OR = {
					culture_is_goblin = yes
					culture_is_harpy = yes
					culture_is_kobold = yes
					culture_is_orcish = yes
					culture_is_gnollish = yes
				}
				NOT = { is_subject_of = ROOT }
			}
		}
		
		trigger = {
			OR = {
				has_harmonized_with = goblin
				has_harmonized_with = harpy_cults
				has_harmonized_with = dragon_cult
				has_harmonized_with = orcish
				has_harmonized_with = gnollish
			}
			any_subject_country = {
				OR = {
					culture_is_goblin = yes
					culture_is_harpy = yes
					culture_is_kobold = yes
					culture_is_orcish = yes
					culture_is_gnollish = yes
				}
			}
		}
		
		effect = {
			custom_tooltip = J33_kalyins_monsters_tt
			set_country_flag = J33_kalyins_monsters
		}
	}
	J33_opening_eyes = {
		icon = mission_star_ascendency
		required_missions = { 
			J33_those_deemed_monsters
		}
		position = 9
		
		provinces_to_highlight = {
			has_discovered = ROOT
		}
		
		trigger = {
			num_of_harmonized = 10
			calc_true_if = {
				all_known_country = { 
					trust = { who = ROOT value = 75 }
					NOT = { religion = kalyin_worshippers }
					OR = {
						is_subject_of = ROOT
						alliance_with = ROOT
					}
				}
				amount = 7
			}
		}
		
		effect = {
			remove_country_modifier = J33_squinting_light
			add_country_modifier = {
				name = J33_eyes_gently_opening
				duration = -1
			}
		}
	}
	J33_adjusting_light = {
		icon = mission_new_dawn
		required_missions = { 
			J33_salvation_ruin J33_opening_eyes
		}
		position = 12
		
		provinces_to_highlight = {
			has_discovered = ROOT
			OR = {
				owner = { kalsyto_CDS = yes }
				province_group = triunic_cities
			}
			NOT = { has_building = cathedral }
		}
		
		trigger = {
			num_of_harmonized = 15
			estate_loyalty = { estate = estate_church loyalty = 90 }
			triunic_cities = {
				type = all
				has_building = cathedral
			}
			calc_true_if = {
				all_subject_country = {
					kalsyto_CDS = yes
					cathedral = 15
				}
				amount = 12
			}
		}
		
		effect = {
			remove_country_modifier = J33_eyes_gently_opening
			add_country_modifier = {
				name = J33_eyes_adjusting
				duration = -1
			}
		}
	}
	J33_beholding_heaven = {
		icon = mission_well_of_majesty
		required_missions = { 
			J33_monotheism J33_adjusting_light
		}
		position = 13
		
		provinces_to_highlight = {
			has_discovered = ROOT
			country_or_subject_holds = ROOT
			#NOT = { religion = kalyin_worshippers }
			NOT = { tolerance_to_this = 3 }
		}
		
		trigger = {
			num_of_harmonized = 20
			num_of_provinces_owned_or_owned_by_subjects_with = {
				value = 2000
				tolerance_to_this = 3
			}
		}
		
		effect = {
			remove_country_modifier = J33_eyes_adjusting
			add_country_modifier = {
				name = J33_beholding_kalyin
				duration = -1
			}
			country_event = { id = flavor_kalsyto.22 }
		}
	}
}
